[ {
        "api": "https://bitbucket.org/oreotv/oreov1.6/raw/80c428975d45d2b308fd08c320266df8d4d8ab3d/movies/moviehot.json",
        "icon": "https://media.glassdoor.com/sqll/1465942/hotstar-squarelogo-1497234030168.png",
        "name": "HOTSTAR MOVIES",
        "fname": "2000+ @ 8 Languages",
        "sname": "Works Only in India",
        "refresh": "HotNew",
        "direct_card": false
    },{
        "api": "https://bitbucket.org/oreotv/1.7.9/raw/fe585044e6e1c6b303828fcb255607d8d1fd8e3f/sunshinemovies.json",
        "icon": "https://www.logolynx.com/images/logolynx/66/668f25e76b79cca2b4569ea5370ca42a.png",
        "name": "SUN SHINE MOVIES",
        "fname": "3000+ Movies",
        "sname": "Works WorldWide",
        "refresh": "false",
        "direct_card": false
    },{
        "api": "https://bitbucket.org/oreotv/1.7.9/raw/2092b7b8b3c3a5236d2ba9c67801dbe9df850995/hyperloopmovies.json",
        "icon": "https://pbs.twimg.com/profile_images/899805271312056320/T-DQsxZE_400x400.jpg",
        "name": "HyperLoop MOVIES",
        "fname": "3000+ Movies 10 Languages",
        "sname": "Works WorldWide",
        "refresh": "false",
        "direct_card": false
    },
    {
        "api": "https://bitbucket.org/oreotv/1.7.9/raw/77e90431ce8b45a507f69f27f83499b5749a455f/4k.json",
        "icon": "https://gigablue.de/wp-content/uploads/2016/04/4K-UHD-logo-png.png",
        "name": "4K HD",
        "fname": "Documentry",
        "sname": "Works Worldwide",
        "refresh": "false",
        "direct_card": true
    }
]