[
    {
        "logo": "https://medianews4u.com/wp-content/uploads/2017/11/sony-liv-logo-1-1-2.jpg",
        "name": "SonyLIV ",
        "sname": "100+ Channels",
        "ssname": "Works Only In India",
        "streaming": [
            {
                "age": "Mozilla/5.0 (Linux; Android 5.0.1; HTC One_M8) AppleWebKit/537.36 (KHTML, like Gecko) Chrome/72.0.3626.76 Mobile Safari/537.36",
                "cardl": 300,
                "cardw": 450,
                "category": 5,
                "channel_id": 155,
                "drm": false,
                "hd": false,
                "icon": "https://resources.sonyliv.com/image/fetch/h_254,w_438,c_fill,fl_lossy,f_auto,q_auto,e_contrast:30,e_brightness:10/http%3A%2F%2Fsetindiapd.brightcove.com.edgesuite.net%2F4338955589001%2F2017%2F07%2F4338955589001_5492594991001_5492474426001-th.jpg%3FpubId%3D4338955589001%26videoId%3D5492474426001",
                "imgh": 219,
                "imgw": 450,
                "isHD": false,
                "language": 1,
                "lic": false,
                "link": "https://www.oreotv.website/live/sony/liv.m3u8?live=5492474426001",
                "linkp": "a",
                "live": false,
                "name": "Sony MAX SD",
                "tok": "widevine",
                "tokj": "hello",
                "trigger": false,
                "z": false,
                "zee": false
            },
            {
                "age": "Mozilla/5.0 (Linux; Android 5.0.1; HTC One_M8) AppleWebKit/537.36 (KHTML, like Gecko) Chrome/72.0.3626.76 Mobile Safari/537.36",
                "cardl": 300,
                "cardw": 450,
                "category": 5,
                "channel_id": 155,
                "drm": false,
                "hd": false,
                "icon": "http://httpsony-a.akamaihd.net/5182475815001/5182475815001_5753645802001_5613710938001-th.jpg?pubId=5182475815001&videoId=5613710938001",
                "imgh": 219,
                "imgw": 450,
                "isHD": false,
                "language": 1,
                "lic": false,
                "link": "https://www.oreotv.website/live/sony/liv.m3u8?live=4867313348001",
                "linkp": "a",
                "live": false,
                "name": "Sony MAX HD",
                "tok": "widevine",
                "tokj": "hello",
                "trigger": false,
                "z": false,
                "zee": false
            },
            {
                "age": "Mozilla/5.0 (Linux; Android 5.0.1; HTC One_M8) AppleWebKit/537.36 (KHTML, like Gecko) Chrome/72.0.3626.76 Mobile Safari/537.36",
                "cardl": 300,
                "cardw": 450,
                "category": 5,
                "channel_id": 155,
                "drm": false,
                "hd": false,
                "icon": "http://httpsony-a.akamaihd.net/5182475815001/5182475815001_6023810032001_5613710948001-th.jpg?pubId=5182475815001&videoId=5613710948001",
                "imgh": 219,
                "imgw": 450,
                "isHD": false,
                "language": 1,
                "lic": false,
                "link": "https://www.oreotv.website/live/sony/liv.m3u8?live=4867316278001",
                "linkp": "a",
                "live": false,
                "name": "Sony SAB HD",
                "tok": "widevine",
                "tokj": "hello",
                "trigger": false,
                "z": false,
                "zee": false
            },
            {
                "age": "Mozilla/5.0 (Linux; Android 5.0.1; HTC One_M8) AppleWebKit/537.36 (KHTML, like Gecko) Chrome/72.0.3626.76 Mobile Safari/537.36",
                "cardl": 300,
                "cardw": 450,
                "category": 5,
                "channel_id": 155,
                "drm": false,
                "hd": false,
                "icon": "http://httpsony-a.akamaihd.net/5182475815001/5182475815001_5778290300001_5613703791001-th.jpg?pubId=5182475815001&videoId=5613703791001",
                "imgh": 219,
                "imgw": 450,
                "isHD": false,
                "language": 1,
                "lic": false,
                "link": "https://www.oreotv.website/live/sony/liv.m3u8?live=4867235330001",
                "linkp": "a",
                "live": false,
                "name": "Sony SET HD",
                "tok": "widevine",
                "tokj": "hello",
                "trigger": false,
                "z": false,
                "zee": false
            },
            {
                "age": "Mozilla/5.0 (Linux; Android 5.0.1; HTC One_M8) AppleWebKit/537.36 (KHTML, like Gecko) Chrome/72.0.3626.76 Mobile Safari/537.36",
                "cardl": 300,
                "cardw": 450,
                "category": 5,
                "channel_id": 155,
                "drm": false,
                "hd": false,
                "icon": "http://httpsony-a.akamaihd.net/5182475815001/5182475815001_5778278435001_5613462522001-th.jpg?pubId=5182475815001&videoId=5613462522001",
                "imgh": 219,
                "imgw": 450,
                "isHD": false,
                "language": 1,
                "lic": false,
                "link": "https://www.oreotv.website/live/sony/liv.m3u8?live=5389091260001",
                "linkp": "a",
                "live": false,
                "name": "Sony YAY SD",
                "tok": "widevine",
                "tokj": "hello",
                "trigger": false,
                "z": false,
                "zee": false
            },
            {
                "age": "Mozilla/5.0 (Linux; Android 5.0.1; HTC One_M8) AppleWebKit/537.36 (KHTML, like Gecko) Chrome/72.0.3626.76 Mobile Safari/537.36",
                "cardl": 300,
                "cardw": 450,
                "category": 5,
                "channel_id": 155,
                "drm": false,
                "hd": false,
                "icon": "https://resources.sonyliv.com/image/fetch/h_254,w_438,c_fill,fl_lossy,f_auto,q_auto,e_contrast:30,e_brightness:10/http%3A%2F%2Fsetindiapd.brightcove.com.edgesuite.net%2F4338955589001%2F2016%2F04%2F4338955589001_4871949277001_pal-logo.jpg%3FpubId%3D4338955589001%26videoId%3D4867313347001",
                "imgh": 219,
                "imgw": 450,
                "isHD": false,
                "language": 1,
                "lic": false,
                "link": "https://www.oreotv.website/live/sony/liv.m3u8?live=4867313347001",
                "linkp": "a",
                "live": false,
                "name": "Sony PAL",
                "tok": "widevine",
                "tokj": "hello",
                "trigger": false,
                "z": false,
                "zee": false
            },
            {
                "age": "Mozilla/5.0 (Linux; Android 5.0.1; HTC One_M8) AppleWebKit/537.36 (KHTML, like Gecko) Chrome/72.0.3626.76 Mobile Safari/537.36",
                "cardl": 300,
                "cardw": 450,
                "category": 5,
                "channel_id": 155,
                "drm": false,
                "hd": false,
                "icon": "http://httpsony-a.akamaihd.net/5182475815001/5182475815001_5814021064001_5813558986001-th.jpg?pubId=5182475815001&videoId=5813558986001",
                "imgh": 219,
                "imgw": 450,
                "isHD": false,
                "language": 1,
                "lic": false,
                "link": "https://www.oreotv.website/live/sony/liv.m3u8?live=5813558986001",
                "linkp": "a",
                "live": false,
                "name": "Sony PIX HD",
                "tok": "widevine",
                "tokj": "hello",
                "trigger": false,
                "z": false,
                "zee": false
            },
            {
                "age": "Mozilla/5.0 (Linux; Android 5.0.1; HTC One_M8) AppleWebKit/537.36 (KHTML, like Gecko) Chrome/72.0.3626.76 Mobile Safari/537.36",
                "cardl": 300,
                "cardw": 450,
                "category": 5,
                "channel_id": 155,
                "drm": false,
                "hd": false,
                "icon": "http://httpsony-a.akamaihd.net/5182475815001/5182475815001_6021153780001_5987435410001-th.jpg?pubId=5182475815001&videoId=5987435410001",
                "imgh": 219,
                "imgw": 450,
                "isHD": false,
                "language": 1,
                "lic": false,
                "link": "https://www.oreotv.website/live/sony/liv.m3u8?live=5987435410001",
                "linkp": "a",
                "live": false,
                "name": "LIV Crime",
                "tok": "widevine",
                "tokj": "hello",
                "trigger": false,
                "z": false,
                "zee": false
            },
            {
                "age": "Mozilla/5.0 (Linux; Android 5.0.1; HTC One_M8) AppleWebKit/537.36 (KHTML, like Gecko) Chrome/72.0.3626.76 Mobile Safari/537.36",
                "cardl": 300,
                "cardw": 450,
                "category": 5,
                "channel_id": 155,
                "drm": false,
                "hd": false,
                "icon": "http://httpsony-a.akamaihd.net/5182475815001/5182475815001_5814021060001_5813558989001-th.jpg?pubId=5182475815001&videoId=5813558989001",
                "imgh": 219,
                "imgw": 450,
                "isHD": false,
                "language": 1,
                "lic": false,
                "link": "https://www.oreotv.website/live/sony/liv.m3u8?live=5813558989001",
                "linkp": "a",
                "live": false,
                "name": "AXN",
                "tok": "widevine",
                "tokj": "hello",
                "trigger": false,
                "z": false,
                "zee": false
            },
            {
                "age": "Mozilla/5.0 (Linux; Android 5.0.1; HTC One_M8) AppleWebKit/537.36 (KHTML, like Gecko) Chrome/72.0.3626.76 Mobile Safari/537.36",
                "cardl": 300,
                "cardw": 450,
                "category": 5,
                "channel_id": 155,
                "drm": false,
                "hd": false,
                "icon": "http://httpsony-a.akamaihd.net/5182475815001/5182475815001_5825886634001_5824352177001-th.jpg?pubId=5182475815001&videoId=5824352177001",
                "imgh": 219,
                "imgw": 450,
                "isHD": false,
                "language": 1,
                "lic": false,
                "link": "https://www.oreotv.website/live/sony/liv.m3u8?live=5824352177001",
                "linkp": "a",
                "live": false,
                "name": "Eurochannel HD",
                "tok": "widevine",
                "tokj": "hello",
                "trigger": false,
                "z": false,
                "zee": false
            },
            {
                "age": "Mozilla/5.0 (Linux; Android 5.0.1; HTC One_M8) AppleWebKit/537.36 (KHTML, like Gecko) Chrome/72.0.3626.76 Mobile Safari/537.36",
                "cardl": 300,
                "cardw": 450,
                "category": 5,
                "channel_id": 155,
                "drm": false,
                "hd": false,
                "icon": "http://httpsony-a.akamaihd.net/5182475815001/5182475815001_6026092806001_6025571244001-th.jpg?pubId=5182475815001&videoId=6025571244001",
                "imgh": 219,
                "imgw": 450,
                "isHD": false,
                "language": 1,
                "lic": false,
                "link": "https://www.oreotv.website/live/sony/liv.m3u8?live=6025571244001",
                "linkp": "a",
                "live": false,
                "name": "Sony TEN 1 SD",
                "tok": "widevine",
                "tokj": "hello",
                "trigger": false,
                "z": false,
                "zee": false
            },
            {
                "age": "Mozilla/5.0 (Linux; Android 5.0.1; HTC One_M8) AppleWebKit/537.36 (KHTML, like Gecko) Chrome/72.0.3626.76 Mobile Safari/537.36",
                "cardl": 300,
                "cardw": 450,
                "category": 5,
                "channel_id": 155,
                "drm": false,
                "hd": false,
                "icon": "http://httpsony-a.akamaihd.net/5182475815001/5182475815001_6025581544001_6025460795001-th.jpg?pubId=5182475815001&videoId=6025460795001",
                "imgh": 219,
                "imgw": 450,
                "isHD": false,
                "language": 1,
                "lic": false,
                "link": "https://www.oreotv.website/live/sony/liv.m3u8?live=6025460795001",
                "linkp": "a",
                "live": false,
                "name": "Sony TEN 1 HD",
                "tok": "widevine",
                "tokj": "hello",
                "trigger": false,
                "z": false,
                "zee": false
            },
            {
                "age": "Mozilla/5.0 (Linux; Android 5.0.1; HTC One_M8) AppleWebKit/537.36 (KHTML, like Gecko) Chrome/72.0.3626.76 Mobile Safari/537.36",
                "cardl": 300,
                "cardw": 450,
                "category": 5,
                "channel_id": 155,
                "drm": false,
                "hd": false,
                "icon": "http://httpsony-a.akamaihd.net/5182475815001/5182475815001_6026092824001_6025568059001-th.jpg?pubId=5182475815001&videoId=6025568059001",
                "imgh": 219,
                "imgw": 450,
                "isHD": false,
                "language": 1,
                "lic": false,
                "link": "https://www.oreotv.website/live/sony/liv.m3u8?live=6025568059001",
                "linkp": "a",
                "live": false,
                "name": "Sony TEN 2 SD",
                "tok": "widevine",
                "tokj": "hello",
                "trigger": false,
                "z": false,
                "zee": false
            },
            {
                "age": "Mozilla/5.0 (Linux; Android 5.0.1; HTC One_M8) AppleWebKit/537.36 (KHTML, like Gecko) Chrome/72.0.3626.76 Mobile Safari/537.36",
                "cardl": 300,
                "cardw": 450,
                "category": 5,
                "channel_id": 155,
                "drm": false,
                "hd": false,
                "icon": "http://httpsony-a.akamaihd.net/5182475815001/5182475815001_6025608915001_6025460814001-th.jpg?pubId=5182475815001&videoId=6025460814001",
                "imgh": 219,
                "imgw": 450,
                "isHD": false,
                "language": 1,
                "lic": false,
                "link": "https://www.oreotv.website/live/sony/liv.m3u8?live=6025460814001",
                "linkp": "a",
                "live": false,
                "name": "Sony TEN 2 HD",
                "tok": "widevine",
                "tokj": "hello",
                "trigger": false,
                "z": false,
                "zee": false
            },
            {
                "age": "Mozilla/5.0 (Linux; Android 5.0.1; HTC One_M8) AppleWebKit/537.36 (KHTML, like Gecko) Chrome/72.0.3626.76 Mobile Safari/537.36",
                "cardl": 300,
                "cardw": 450,
                "category": 5,
                "channel_id": 155,
                "drm": false,
                "hd": false,
                "icon": "http://httpsony-a.akamaihd.net/5182475815001/5182475815001_6026092825001_6025575368001-th.jpg?pubId=5182475815001&videoId=6025575368001",
                "imgh": 219,
                "imgw": 450,
                "isHD": false,
                "language": 1,
                "lic": false,
                "link": "https://www.oreotv.website/live/sony/liv.m3u8?live=6025575368001",
                "linkp": "a",
                "live": false,
                "name": "Sony TEN 3 SD",
                "tok": "widevine",
                "tokj": "hello",
                "trigger": false,
                "z": false,
                "zee": false
            },
            {
                "age": "Mozilla/5.0 (Linux; Android 5.0.1; HTC One_M8) AppleWebKit/537.36 (KHTML, like Gecko) Chrome/72.0.3626.76 Mobile Safari/537.36",
                "cardl": 300,
                "cardw": 450,
                "category": 5,
                "channel_id": 155,
                "drm": false,
                "hd": false,
                "icon": "http://httpsony-a.akamaihd.net/5182475815001/5182475815001_6025606448001_6025462985001-th.jpg?pubId=5182475815001&videoId=6025462985001",
                "imgh": 219,
                "imgw": 450,
                "isHD": false,
                "language": 1,
                "lic": false,
                "link": "https://www.oreotv.website/live/sony/liv.m3u8?live=6025462985001",
                "linkp": "a",
                "live": false,
                "name": "Sony TEN 3 HD",
                "tok": "widevine",
                "tokj": "hello",
                "trigger": false,
                "z": false,
                "zee": false
            },
            {
                "age": "Mozilla/5.0 (Linux; Android 5.0.1; HTC One_M8) AppleWebKit/537.36 (KHTML, like Gecko) Chrome/72.0.3626.76 Mobile Safari/537.36",
                "cardl": 300,
                "cardw": 450,
                "category": 5,
                "channel_id": 155,
                "drm": false,
                "hd": false,
                "icon": "http://httpsony-a.akamaihd.net/5182475815001/5182475815001_6026092787001_6025568720001-th.jpg?pubId=5182475815001&videoId=6025568720001",
                "imgh": 219,
                "imgw": 450,
                "isHD": false,
                "language": 1,
                "lic": false,
                "link": "https://www.oreotv.website/live/sony/liv.m3u8?live=6025568720001",
                "linkp": "a",
                "live": false,
                "name": "Sony Six SD",
                "tok": "widevine",
                "tokj": "hello",
                "trigger": false,
                "z": false,
                "zee": false
            },
            {
                "age": "Mozilla/5.0 (Linux; Android 5.0.1; HTC One_M8) AppleWebKit/537.36 (KHTML, like Gecko) Chrome/72.0.3626.76 Mobile Safari/537.36",
                "cardl": 300,
                "cardw": 450,
                "category": 5,
                "channel_id": 155,
                "drm": false,
                "hd": false,
                "icon": "http://httpsony-a.akamaihd.net/5182475815001/5182475815001_6025614847001_6025459316001-th.jpg?pubId=5182475815001&videoId=6025459316001",
                "imgh": 219,
                "imgw": 450,
                "isHD": false,
                "language": 1,
                "lic": false,
                "link": "https://www.oreotv.website/live/sony/liv.m3u8?live=6025459316001",
                "linkp": "a",
                "live": false,
                "name": "Sony SIX HD",
                "tok": "widevine",
                "tokj": "hello",
                "trigger": false,
                "z": false,
                "zee": false
            },
            {
                "age": "Mozilla/5.0 (Linux; Android 5.0.1; HTC One_M8) AppleWebKit/537.36 (KHTML, like Gecko) Chrome/72.0.3626.76 Mobile Safari/537.36",
                "cardl": 300,
                "cardw": 450,
                "category": 5,
                "channel_id": 155,
                "drm": false,
                "hd": false,
                "icon": "http://httpsony-a.akamaihd.net/5182475815001/5182475815001_6026092788001_6025573748001-th.jpg?pubId=5182475815001&videoId=6025573748001",
                "imgh": 219,
                "imgw": 450,
                "isHD": false,
                "language": 1,
                "lic": false,
                "link": "https://www.oreotv.website/live/sony/liv.m3u8?live=6025573748001",
                "linkp": "a",
                "live": false,
                "name": "Sony ESPN SD",
                "tok": "widevine",
                "tokj": "hello",
                "trigger": false,
                "z": false,
                "zee": false
            },
            {
                "age": "Mozilla/5.0 (Linux; Android 5.0.1; HTC One_M8) AppleWebKit/537.36 (KHTML, like Gecko) Chrome/72.0.3626.76 Mobile Safari/537.36",
                "cardl": 300,
                "cardw": 450,
                "category": 5,
                "channel_id": 155,
                "drm": false,
                "hd": false,
                "icon": "http://httpsony-a.akamaihd.net/5182475815001/5182475815001_6025614785001_6025457392001-th.jpg?pubId=5182475815001&videoId=6025457392001",
                "imgh": 219,
                "imgw": 450,
                "isHD": false,
                "language": 1,
                "lic": false,
                "link": "https://www.oreotv.website/live/sony/liv.m3u8?live=6025457392001",
                "linkp": "a",
                "live": false,
                "name": "Sony ESPN HD",
                "tok": "widevine",
                "tokj": "hello",
                "trigger": false,
                "z": false,
                "zee": false
            },
            {
                "age": "Mozilla/5.0 (Linux; Android 5.0.1; HTC One_M8) AppleWebKit/537.36 (KHTML, like Gecko) Chrome/72.0.3626.76 Mobile Safari/537.36",
                "cardl": 300,
                "cardw": 450,
                "category": 5,
                "channel_id": 155,
                "drm": false,
                "hd": false,
                "icon": "http://httpsony-a.akamaihd.net/5182475815001/5182475815001_6032481214001_6028641849001-th.jpg?pubId=5182475815001&videoId=6028641849001",
                "imgh": 219,
                "imgw": 450,
                "isHD": false,
                "language": 1,
                "lic": false,
                "link": "https://www.oreotv.website/live/sony/liv.m3u8?live=6028641849001",
                "linkp": "a",
                "live": false,
                "name": "Travelxp",
                "tok": "widevine",
                "tokj": "hello",
                "trigger": false,
                "z": false,
                "zee": false
            },
            {
                "age": "Mozilla/5.0 (Linux; Android 5.0.1; HTC One_M8) AppleWebKit/537.36 (KHTML, like Gecko) Chrome/72.0.3626.76 Mobile Safari/537.36",
                "cardl": 300,
                "cardw": 450,
                "category": 5,
                "channel_id": 155,
                "drm": false,
                "hd": false,
                "icon": "http://httpsony-a.akamaihd.net/5182475815001/5182475815001_6032481228001_6028642649001-th.jpg?pubId=5182475815001&videoId=6028642649001",
                "imgh": 219,
                "imgw": 450,
                "isHD": false,
                "language": 1,
                "lic": false,
                "link": "https://www.oreotv.website/live/sony/liv.m3u8?live=6028642649001",
                "linkp": "a",
                "live": false,
                "name": "Travelxp Tamil",
                "tok": "widevine",
                "tokj": "hello",
                "trigger": false,
                "z": false,
                "zee": false
            },
            {
                "age": "Mozilla/5.0 (Linux; Android 5.0.1; HTC One_M8) AppleWebKit/537.36 (KHTML, like Gecko) Chrome/72.0.3626.76 Mobile Safari/537.36",
                "cardl": 300,
                "cardw": 450,
                "category": 5,
                "channel_id": 155,
                "drm": false,
                "hd": false,
                "icon": "http://httpsony-a.akamaihd.net/5182475815001/5182475815001_6027147762001_6025074021001-th.jpg?pubId=5182475815001&videoId=6025074021001",
                "imgh": 219,
                "imgw": 450,
                "isHD": false,
                "language": 1,
                "lic": false,
                "link": "https://www.oreotv.website/live/sony/liv.m3u8?live=6025074021001",
                "linkp": "a",
                "live": false,
                "name": "EPIC",
                "tok": "widevine",
                "tokj": "hello",
                "trigger": false,
                "z": false,
                "zee": false
            },
            {
                "age": "Mozilla/5.0 (Linux; Android 5.0.1; HTC One_M8) AppleWebKit/537.36 (KHTML, like Gecko) Chrome/72.0.3626.76 Mobile Safari/537.36",
                "cardl": 300,
                "cardw": 450,
                "category": 5,
                "channel_id": 155,
                "drm": false,
                "hd": false,
                "icon": "http://httpsony-a.akamaihd.net/5182475815001/5182475815001_6035182038001_6032161967001-th.jpg?pubId=5182475815001&videoId=6032161967001",
                "imgh": 219,
                "imgw": 450,
                "isHD": false,
                "language": 1,
                "lic": false,
                "link": "https://www.oreotv.website/live/sony/liv.m3u8?live=6032161967001",
                "linkp": "a",
                "live": false,
                "name": "B4U Movies",
                "tok": "widevine",
                "tokj": "hello",
                "trigger": false,
                "z": false,
                "zee": false
            },
            {
                "age": "Mozilla/5.0 (Linux; Android 5.0.1; HTC One_M8) AppleWebKit/537.36 (KHTML, like Gecko) Chrome/72.0.3626.76 Mobile Safari/537.36",
                "cardl": 300,
                "cardw": 450,
                "category": 5,
                "channel_id": 155,
                "drm": false,
                "hd": false,
                "icon": "https://resources.sonyliv.com/image/fetch/h_254,w_438,c_fill,fl_lossy,f_auto,q_auto,e_contrast:30,e_brightness:10/http%3A%2F%2Fsetindiapd.brightcove.com.edgesuite.net%2F4338955589001%2F2017%2F09%2F4338955589001_5573485621001_5571681160001-th.jpg%3FpubId%3D4338955589001%26videoId%3D5571681160001",
                "imgh": 219,
                "imgw": 450,
                "isHD": false,
                "language": 1,
                "lic": false,
                "link": "https://www.oreotv.website/live/sony/liv.m3u8?live=5571681160001",
                "linkp": "a",
                "live": false,
                "name": "Sony BBC Earth HD",
                "tok": "widevine",
                "tokj": "hello",
                "trigger": false,
                "z": false,
                "zee": false
            },
            {
                "age": "Mozilla/5.0 (Linux; Android 5.0.1; HTC One_M8) AppleWebKit/537.36 (KHTML, like Gecko) Chrome/72.0.3626.76 Mobile Safari/537.36",
                "cardl": 300,
                "cardw": 450,
                "category": 5,
                "channel_id": 155,
                "drm": false,
                "hd": false,
                "icon": "http://httpsony-a.akamaihd.net/5182475815001/5182475815001_5752700765001_5613700600001-th.jpg?pubId=5182475815001&videoId=5613700600001",
                "imgh": 219,
                "imgw": 450,
                "isHD": false,
                "language": 1,
                "lic": false,
                "link": "https://www.oreotv.website/live/sony/liv.m3u8?live=5613700600001",
                "linkp": "a",
                "live": false,
                "name": "Sony WAH",
                "tok": "widevine",
                "tokj": "hello",
                "trigger": false,
                "z": false,
                "zee": false
            },
            {
                "age": "Mozilla/5.0 (Linux; Android 5.0.1; HTC One_M8) AppleWebKit/537.36 (KHTML, like Gecko) Chrome/72.0.3626.76 Mobile Safari/537.36",
                "cardl": 300,
                "cardw": 450,
                "category": 5,
                "channel_id": 155,
                "drm": false,
                "hd": false,
                "icon": "http://httpsony-a.akamaihd.net/5182475815001/5182475815001_5829236681001_5823319728001-th.jpg?pubId=5182475815001&videoId=5823319728001",
                "imgh": 219,
                "imgw": 450,
                "isHD": false,
                "language": 1,
                "lic": false,
                "link": "https://www.oreotv.website/live/sony/liv.m3u8?live=5823319728001",
                "linkp": "a",
                "live": false,
                "name": "Sony Marathi HD",
                "tok": "widevine",
                "tokj": "hello",
                "trigger": false,
                "z": false,
                "zee": false
            },
            {
                "age": "Mozilla/5.0 (Linux; Android 5.0.1; HTC One_M8) AppleWebKit/537.36 (KHTML, like Gecko) Chrome/72.0.3626.76 Mobile Safari/537.36",
                "cardl": 300,
                "cardw": 450,
                "category": 5,
                "channel_id": 155,
                "drm": false,
                "hd": false,
                "icon": "http://httpsony-a.akamaihd.net/5182475815001/5182475815001_6032192646001_6029354568001-th.jpg?pubId=5182475815001&videoId=6029354568001",
                "imgh": 219,
                "imgw": 450,
                "isHD": false,
                "language": 1,
                "lic": false,
                "link": "https://www.oreotv.website/live/sony/liv.m3u8?live=6029354568001",
                "linkp": "a",
                "live": false,
                "name": "The Q India",
                "tok": "widevine",
                "tokj": "hello",
                "trigger": false,
                "z": false,
                "zee": false
            },
            {
                "age": "Mozilla/5.0 (Linux; Android 5.0.1; HTC One_M8) AppleWebKit/537.36 (KHTML, like Gecko) Chrome/72.0.3626.76 Mobile Safari/537.36",
                "cardl": 300,
                "cardw": 450,
                "category": 5,
                "channel_id": 155,
                "drm": false,
                "hd": false,
                "icon": "http://httpsony-a.akamaihd.net/5182475815001/5182475815001_5786069134001_5784992380001-th.jpg?pubId=5182475815001&videoId=5784992380001",
                "imgh": 219,
                "imgw": 450,
                "isHD": false,
                "language": 1,
                "lic": false,
                "link": "https://www.oreotv.website/live/sony/liv.m3u8?live=5784992380001",
                "linkp": "a",
                "live": false,
                "name": "Sony Aath",
                "tok": "widevine",
                "tokj": "hello",
                "trigger": false,
                "z": false,
                "zee": false
            },
            {
                "age": "Mozilla/5.0 (Linux; Android 5.0.1; HTC One_M8) AppleWebKit/537.36 (KHTML, like Gecko) Chrome/72.0.3626.76 Mobile Safari/537.36",
                "cardl": 300,
                "cardw": 450,
                "category": 5,
                "channel_id": 155,
                "drm": false,
                "hd": false,
                "icon": "http://httpsony-a.akamaihd.net/5182475815001/5182475815001_6033864197001_6032167765001-th.jpg?pubId=5182475815001&videoId=6032167765001",
                "imgh": 219,
                "imgw": 450,
                "isHD": false,
                "language": 1,
                "lic": false,
                "link": "https://www.oreotv.website/live/sony/liv.m3u8?live=6032167765001",
                "linkp": "a",
                "live": false,
                "name": "B4U Music",
                "tok": "widevine",
                "tokj": "hello",
                "trigger": false,
                "z": false,
                "zee": false
            },
            {
                "age": "Mozilla/5.0 (Linux; Android 5.0.1; HTC One_M8) AppleWebKit/537.36 (KHTML, like Gecko) Chrome/72.0.3626.76 Mobile Safari/537.36",
                "cardl": 300,
                "cardw": 450,
                "category": 5,
                "channel_id": 155,
                "drm": false,
                "hd": false,
                "icon": "https://resources.sonyliv.com/image/fetch/h_254,w_438,c_fill,fl_lossy,f_auto,q_auto,e_contrast:30,e_brightness:10/http%3A%2F%2Fsetindiapd.brightcove.com.edgesuite.net%2F4338955589001%2F2017%2F07%2F4338955589001_5493879549001_5492755223001-th.jpg%3FpubId%3D4338955589001%26videoId%3D5492755223001",
                "imgh": 219,
                "imgw": 450,
                "isHD": false,
                "language": 1,
                "lic": false,
                "link": "https://www.oreotv.website/live/sony/liv.m3u8?live=5492755223001",
                "linkp": "a",
                "live": false,
                "name": "Sony MIX SD",
                "tok": "widevine",
                "tokj": "hello",
                "trigger": false,
                "z": false,
                "zee": false
            },
            {
                "age": "Mozilla/5.0 (Linux; Android 5.0.1; HTC One_M8) AppleWebKit/537.36 (KHTML, like Gecko) Chrome/72.0.3626.76 Mobile Safari/537.36",
                "cardl": 300,
                "cardw": 450,
                "category": 5,
                "channel_id": 155,
                "drm": false,
                "hd": false,
                "icon": "http://httpsony-a.akamaihd.net/5182475815001/5182475815001_6034092338001_6032177941001-th.jpg?pubId=5182475815001&videoId=6032177941001",
                "imgh": 219,
                "imgw": 450,
                "isHD": false,
                "language": 1,
                "lic": false,
                "link": "https://www.oreotv.website/live/sony/liv.m3u8?live=6032177941001",
                "linkp": "a",
                "live": false,
                "name": "9X Jhakaas",
                "tok": "widevine",
                "tokj": "hello",
                "trigger": false,
                "z": false,
                "zee": false
            },
            {
                "age": "Mozilla/5.0 (Linux; Android 5.0.1; HTC One_M8) AppleWebKit/537.36 (KHTML, like Gecko) Chrome/72.0.3626.76 Mobile Safari/537.36",
                "cardl": 300,
                "cardw": 450,
                "category": 5,
                "channel_id": 155,
                "drm": false,
                "hd": false,
                "icon": "http://httpsony-a.akamaihd.net/5182475815001/5182475815001_6034046617001_6032177329001-th.jpg?pubId=5182475815001&videoId=6032177329001",
                "imgh": 219,
                "imgw": 450,
                "isHD": false,
                "language": 1,
                "lic": false,
                "link": "https://www.oreotv.website/live/sony/liv.m3u8?live=6032177329001",
                "linkp": "a",
                "live": false,
                "name": "9X Tashan",
                "tok": "widevine",
                "tokj": "hello",
                "trigger": false,
                "z": false,
                "zee": false
            },
            {
                "age": "Mozilla/5.0 (Linux; Android 5.0.1; HTC One_M8) AppleWebKit/537.36 (KHTML, like Gecko) Chrome/72.0.3626.76 Mobile Safari/537.36",
                "cardl": 300,
                "cardw": 450,
                "category": 5,
                "channel_id": 155,
                "drm": false,
                "hd": false,
                "icon": "http://httpsony-a.akamaihd.net/5182475815001/5182475815001_6034092329001_6032169946001-th.jpg?pubId=5182475815001&videoId=6032169946001",
                "imgh": 219,
                "imgw": 450,
                "isHD": false,
                "language": 1,
                "lic": false,
                "link": "https://www.oreotv.website/live/sony/liv.m3u8?live=6032169946001",
                "linkp": "a",
                "live": false,
                "name": "9X Jalwa",
                "tok": "widevine",
                "tokj": "hello",
                "trigger": false,
                "z": false,
                "zee": false
            },
            {
                "age": "Mozilla/5.0 (Linux; Android 5.0.1; HTC One_M8) AppleWebKit/537.36 (KHTML, like Gecko) Chrome/72.0.3626.76 Mobile Safari/537.36",
                "cardl": 300,
                "cardw": 450,
                "category": 5,
                "channel_id": 155,
                "drm": false,
                "hd": false,
                "icon": "http://httpsony-a.akamaihd.net/5182475815001/5182475815001_6034057964001_6032165956001-th.jpg?pubId=5182475815001&videoId=6032165956001",
                "imgh": 219,
                "imgw": 450,
                "isHD": false,
                "language": 1,
                "lic": false,
                "link": "https://www.oreotv.website/live/sony/liv.m3u8?live=6032165956001",
                "linkp": "a",
                "live": false,
                "name": "9XM",
                "tok": "widevine",
                "tokj": "hello",
                "trigger": false,
                "z": false,
                "zee": false
            },
            {
                "age": "Mozilla/5.0 (Linux; Android 5.0.1; HTC One_M8) AppleWebKit/537.36 (KHTML, like Gecko) Chrome/72.0.3626.76 Mobile Safari/537.36",
                "cardl": 300,
                "cardw": 450,
                "category": 5,
                "channel_id": 155,
                "drm": false,
                "hd": false,
                "icon": "http://httpsony-a.akamaihd.net/5182475815001/5182475815001_6009667673001_6007719034001-th.jpg?pubId=5182475815001&videoId=6007719034001",
                "imgh": 219,
                "imgw": 450,
                "isHD": false,
                "language": 1,
                "lic": false,
                "link": "https://www.oreotv.website/live/sony/liv.m3u8?live=6007719034001",
                "linkp": "a",
                "live": false,
                "name": "Aamar Cinema",
                "tok": "widevine",
                "tokj": "hello",
                "trigger": false,
                "z": false,
                "zee": false
            },
            {
                "age": "Mozilla/5.0 (Linux; Android 5.0.1; HTC One_M8) AppleWebKit/537.36 (KHTML, like Gecko) Chrome/72.0.3626.76 Mobile Safari/537.36",
                "cardl": 300,
                "cardw": 450,
                "category": 5,
                "channel_id": 155,
                "drm": false,
                "hd": false,
                "icon": "http://httpsony-a.akamaihd.net/5182475815001/5182475815001_5972534925001_5968937146001-th.jpg?pubId=5182475815001&videoId=5968937146001",
                "imgh": 219,
                "imgw": 450,
                "isHD": false,
                "language": 1,
                "lic": false,
                "link": "https://www.oreotv.website/live/sony/liv.m3u8?live=5968937146001",
                "linkp": "a",
                "live": false,
                "name": "Makkal TV",
                "tok": "widevine",
                "tokj": "hello",
                "trigger": false,
                "z": false,
                "zee": false
            },
            {
                "age": "Mozilla/5.0 (Linux; Android 5.0.1; HTC One_M8) AppleWebKit/537.36 (KHTML, like Gecko) Chrome/72.0.3626.76 Mobile Safari/537.36",
                "cardl": 300,
                "cardw": 450,
                "category": 5,
                "channel_id": 155,
                "drm": false,
                "hd": false,
                "icon": "http://httpsony-a.akamaihd.net/5182475815001/5182475815001_5824245902001_5823336424001-th.jpg?pubId=5182475815001&videoId=5823336424001",
                "imgh": 219,
                "imgw": 450,
                "isHD": false,
                "language": 1,
                "lic": false,
                "link": "https://www.oreotv.website/live/sony/liv.m3u8?live=5823336424001",
                "linkp": "a",
                "live": false,
                "name": "Krishna Vani",
                "tok": "widevine",
                "tokj": "hello",
                "trigger": false,
                "z": false,
                "zee": false
            },
            {
                "age": "Mozilla/5.0 (Linux; Android 5.0.1; HTC One_M8) AppleWebKit/537.36 (KHTML, like Gecko) Chrome/72.0.3626.76 Mobile Safari/537.36",
                "cardl": 300,
                "cardw": 450,
                "category": 5,
                "channel_id": 155,
                "drm": false,
                "hd": false,
                "icon": "https://resources.sonyliv.com/image/fetch/h_254,w_438,c_fill,fl_lossy,f_auto,q_auto,e_contrast:30,e_brightness:10/http%3A%2F%2Fsetindiapd.brightcove.com.edgesuite.net%2F4338955589001%2F2017%2F07%2F4338955589001_5491159181001_5428398908001-th.jpg%3FpubId%3D4338955589001%26videoId%3D5428398908001",
                "imgh": 219,
                "imgw": 450,
                "isHD": false,
                "language": 1,
                "lic": false,
                "link": "https://www.oreotv.website/live/sony/liv.m3u8?live=5428398908001",
                "linkp": "a",
                "live": false,
                "name": "Chardikla Time TV",
                "tok": "widevine",
                "tokj": "hello",
                "trigger": false,
                "z": false,
                "zee": false
            },
            {
                "age": "Mozilla/5.0 (Linux; Android 5.0.1; HTC One_M8) AppleWebKit/537.36 (KHTML, like Gecko) Chrome/72.0.3626.76 Mobile Safari/537.36",
                "cardl": 300,
                "cardw": 450,
                "category": 5,
                "channel_id": 155,
                "drm": false,
                "hd": false,
                "icon": "https://resources.sonyliv.com/image/fetch/h_254,w_438,c_fill,fl_lossy,f_auto,q_auto,e_contrast:30,e_brightness:10/http%3A%2F%2Fsetindiapd.brightcove.com.edgesuite.net%2F4338955589001%2F2017%2F10%2F4338955589001_5594557093001_5591901634001-th.jpg%3FpubId%3D4338955589001%26videoId%3D5591901634001",
                "imgh": 219,
                "imgw": 450,
                "isHD": false,
                "language": 1,
                "lic": false,
                "link": "https://www.oreotv.website/live/sony/liv.m3u8?live=5591901634001",
                "linkp": "a",
                "live": false,
                "name": "Food Food",
                "tok": "widevine",
                "tokj": "hello",
                "trigger": false,
                "z": false,
                "zee": false
            },
            {
                "age": "Mozilla/5.0 (Linux; Android 5.0.1; HTC One_M8) AppleWebKit/537.36 (KHTML, like Gecko) Chrome/72.0.3626.76 Mobile Safari/537.36",
                "cardl": 300,
                "cardw": 450,
                "category": 5,
                "channel_id": 155,
                "drm": false,
                "hd": false,
                "icon": "http://httpsony-a.akamaihd.net/5182475815001/5182475815001_5764446005001_5763554516001-th.jpg?pubId=5182475815001&videoId=5763554516001",
                "imgh": 219,
                "imgw": 450,
                "isHD": false,
                "language": 1,
                "lic": false,
                "link": "https://www.oreotv.website/live/sony/liv.m3u8?live=5763554516001",
                "linkp": "a",
                "live": false,
                "name": "Boogle Bollywood",
                "tok": "widevine",
                "tokj": "hello",
                "trigger": false,
                "z": false,
                "zee": false
            },
            {
                "age": "Mozilla/5.0 (Linux; Android 5.0.1; HTC One_M8) AppleWebKit/537.36 (KHTML, like Gecko) Chrome/72.0.3626.76 Mobile Safari/537.36",
                "cardl": 300,
                "cardw": 450,
                "category": 5,
                "channel_id": 155,
                "drm": false,
                "hd": false,
                "icon": "https://resources.sonyliv.com/image/fetch/h_254,w_438,c_fill,fl_lossy,f_auto,q_auto,e_contrast:30,e_brightness:10/http%3A%2F%2Fsetindiapd.brightcove.com.edgesuite.net%2F4338955589001%2F2017%2F07%2F4338955589001_5497181157001_5495190673001-th.jpg%3FpubId%3D4338955589001%26videoId%3D5495190673001",
                "imgh": 219,
                "imgw": 450,
                "isHD": false,
                "language": 1,
                "lic": false,
                "link": "https://www.oreotv.website/live/sony/liv.m3u8?live=5495190673001",
                "linkp": "a",
                "live": false,
                "name": "Animax HD",
                "tok": "widevine",
                "tokj": "hello",
                "trigger": false,
                "z": false,
                "zee": false
            },
            {
                "age": "Mozilla/5.0 (Linux; Android 5.0.1; HTC One_M8) AppleWebKit/537.36 (KHTML, like Gecko) Chrome/72.0.3626.76 Mobile Safari/537.36",
                "cardl": 300,
                "cardw": 450,
                "category": 5,
                "channel_id": 155,
                "drm": false,
                "hd": false,
                "icon": "http://httpsony-a.akamaihd.net/5182475815001/5182475815001_6023176858001_6022442079001-th.jpg?pubId=5182475815001&videoId=6022442079001",
                "imgh": 219,
                "imgw": 450,
                "isHD": false,
                "language": 1,
                "lic": false,
                "link": "https://www.oreotv.website/live/sony/liv.m3u8?live=6022442079001",
                "linkp": "a",
                "live": false,
                "name": "Aaj Tak",
                "tok": "widevine",
                "tokj": "hello",
                "trigger": false,
                "z": false,
                "zee": false
            },
            {
                "age": "Mozilla/5.0 (Linux; Android 5.0.1; HTC One_M8) AppleWebKit/537.36 (KHTML, like Gecko) Chrome/72.0.3626.76 Mobile Safari/537.36",
                "cardl": 300,
                "cardw": 450,
                "category": 5,
                "channel_id": 155,
                "drm": false,
                "hd": false,
                "icon": "http://httpsony-a.akamaihd.net/5182475815001/5182475815001_5777738621001_5759574104001-th.jpg?pubId=5182475815001&videoId=5759574104001",
                "imgh": 219,
                "imgw": 450,
                "isHD": false,
                "language": 1,
                "lic": false,
                "link": "https://www.oreotv.website/live/sony/liv.m3u8?live=5759574104001",
                "linkp": "a",
                "live": false,
                "name": "Republic TV",
                "tok": "widevine",
                "tokj": "hello",
                "trigger": false,
                "z": false,
                "zee": false
            },
            {
                "age": "Mozilla/5.0 (Linux; Android 5.0.1; HTC One_M8) AppleWebKit/537.36 (KHTML, like Gecko) Chrome/72.0.3626.76 Mobile Safari/537.36",
                "cardl": 300,
                "cardw": 450,
                "category": 5,
                "channel_id": 155,
                "drm": false,
                "hd": false,
                "icon": "http://httpsony-a.akamaihd.net/5182475815001/5182475815001_6031717940001_6028977146001-th.jpg?pubId=5182475815001&videoId=6028977146001",
                "imgh": 219,
                "imgw": 450,
                "isHD": false,
                "language": 1,
                "lic": false,
                "link": "https://www.oreotv.website/live/sony/liv.m3u8?live=6028977146001",
                "linkp": "a",
                "live": false,
                "name": "India TV",
                "tok": "widevine",
                "tokj": "hello",
                "trigger": false,
                "z": false,
                "zee": false
            },
            {
                "age": "Mozilla/5.0 (Linux; Android 5.0.1; HTC One_M8) AppleWebKit/537.36 (KHTML, like Gecko) Chrome/72.0.3626.76 Mobile Safari/537.36",
                "cardl": 300,
                "cardw": 450,
                "category": 5,
                "channel_id": 155,
                "drm": false,
                "hd": false,
                "icon": "http://httpsony-a.akamaihd.net/5182475815001/5182475815001_6021548590001_6021230529001-th.jpg?pubId=5182475815001&videoId=6021230529001",
                "imgh": 219,
                "imgw": 450,
                "isHD": false,
                "language": 1,
                "lic": false,
                "link": "https://www.oreotv.website/live/sony/liv.m3u8?live=6021230529001",
                "linkp": "a",
                "live": false,
                "name": "News Nation",
                "tok": "widevine",
                "tokj": "hello",
                "trigger": false,
                "z": false,
                "zee": false
            },
            {
                "age": "Mozilla/5.0 (Linux; Android 5.0.1; HTC One_M8) AppleWebKit/537.36 (KHTML, like Gecko) Chrome/72.0.3626.76 Mobile Safari/537.36",
                "cardl": 300,
                "cardw": 450,
                "category": 5,
                "channel_id": 155,
                "drm": false,
                "hd": false,
                "icon": "http://httpsony-a.akamaihd.net/5182475815001/5182475815001_6023179060001_6022448630001-th.jpg?pubId=5182475815001&videoId=6022448630001",
                "imgh": 219,
                "imgw": 450,
                "isHD": false,
                "language": 1,
                "lic": false,
                "link": "https://www.oreotv.website/live/sony/liv.m3u8?live=6022448630001",
                "linkp": "a",
                "live": false,
                "name": "Dilli Aaj Tak",
                "tok": "widevine",
                "tokj": "hello",
                "trigger": false,
                "z": false,
                "zee": false
            },
            {
                "age": "Mozilla/5.0 (Linux; Android 5.0.1; HTC One_M8) AppleWebKit/537.36 (KHTML, like Gecko) Chrome/72.0.3626.76 Mobile Safari/537.36",
                "cardl": 300,
                "cardw": 450,
                "category": 5,
                "channel_id": 155,
                "drm": false,
                "hd": false,
                "icon": "http://httpsony-a.akamaihd.net/5182475815001/5182475815001_6023176884001_6022446010001-th.jpg?pubId=5182475815001&videoId=6022446010001",
                "imgh": 219,
                "imgw": 450,
                "isHD": false,
                "language": 1,
                "lic": false,
                "link": "https://www.oreotv.website/live/sony/liv.m3u8?live=6022446010001",
                "linkp": "a",
                "live": false,
                "name": "TEZ",
                "tok": "widevine",
                "tokj": "hello",
                "trigger": false,
                "z": false,
                "zee": false
            },
            {
                "age": "Mozilla/5.0 (Linux; Android 5.0.1; HTC One_M8) AppleWebKit/537.36 (KHTML, like Gecko) Chrome/72.0.3626.76 Mobile Safari/537.36",
                "cardl": 300,
                "cardw": 450,
                "category": 5,
                "channel_id": 155,
                "drm": false,
                "hd": false,
                "icon": "http://httpsony-a.akamaihd.net/5182475815001/5182475815001_6031049874001_6028991939001-th.jpg?pubId=5182475815001&videoId=6028991939001",
                "imgh": 219,
                "imgw": 450,
                "isHD": false,
                "language": 1,
                "lic": false,
                "link": "https://www.oreotv.website/live/sony/liv.m3u8?live=6028991939001",
                "linkp": "a",
                "live": false,
                "name": "Sudarshan News",
                "tok": "widevine",
                "tokj": "hello",
                "trigger": false,
                "z": false,
                "zee": false
            },
            {
                "age": "Mozilla/5.0 (Linux; Android 5.0.1; HTC One_M8) AppleWebKit/537.36 (KHTML, like Gecko) Chrome/72.0.3626.76 Mobile Safari/537.36",
                "cardl": 300,
                "cardw": 450,
                "category": 5,
                "channel_id": 155,
                "drm": false,
                "hd": false,
                "icon": "http://httpsony-a.akamaihd.net/5182475815001/5182475815001_5850266636001_5849840734001-th.jpg?pubId=5182475815001&videoId=5849840734001",
                "imgh": 219,
                "imgw": 450,
                "isHD": false,
                "language": 1,
                "lic": false,
                "link": "https://www.oreotv.website/live/sony/liv.m3u8?live=5849840734001",
                "linkp": "a",
                "live": false,
                "name": "IBC 24 NEWS",
                "tok": "widevine",
                "tokj": "hello",
                "trigger": false,
                "z": false,
                "zee": false
            },
            {
                "age": "Mozilla/5.0 (Linux; Android 5.0.1; HTC One_M8) AppleWebKit/537.36 (KHTML, like Gecko) Chrome/72.0.3626.76 Mobile Safari/537.36",
                "cardl": 300,
                "cardw": 450,
                "category": 5,
                "channel_id": 155,
                "drm": false,
                "hd": false,
                "icon": "http://httpsony-a.akamaihd.net/5182475815001/5182475815001_6023250288001_6022441617001-th.jpg?pubId=5182475815001&videoId=6022441617001",
                "imgh": 219,
                "imgw": 450,
                "isHD": false,
                "language": 1,
                "lic": false,
                "link": "https://www.oreotv.website/live/sony/liv.m3u8?live=6022441617001",
                "linkp": "a",
                "live": false,
                "name": "India Today",
                "tok": "widevine",
                "tokj": "hello",
                "trigger": false,
                "z": false,
                "zee": false
            },
            {
                "age": "Mozilla/5.0 (Linux; Android 5.0.1; HTC One_M8) AppleWebKit/537.36 (KHTML, like Gecko) Chrome/72.0.3626.76 Mobile Safari/537.36",
                "cardl": 300,
                "cardw": 450,
                "category": 5,
                "channel_id": 155,
                "drm": false,
                "hd": false,
                "icon": "http://httpsony-a.akamaihd.net/5182475815001/5182475815001_5995879569001_5977485611001-th.jpg?pubId=5182475815001&videoId=5977485611001",
                "imgh": 219,
                "imgw": 450,
                "isHD": false,
                "language": 1,
                "lic": false,
                "link": "https://www.oreotv.website/live/sony/liv.m3u8?live=5977485611001",
                "linkp": "a",
                "live": false,
                "name": "BTVI",
                "tok": "widevine",
                "tokj": "hello",
                "trigger": false,
                "z": false,
                "zee": false
            },
            {
                "age": "Mozilla/5.0 (Linux; Android 5.0.1; HTC One_M8) AppleWebKit/537.36 (KHTML, like Gecko) Chrome/72.0.3626.76 Mobile Safari/537.36",
                "cardl": 300,
                "cardw": 450,
                "category": 5,
                "channel_id": 155,
                "drm": false,
                "hd": false,
                "icon": "http://httpsony-a.akamaihd.net/5182475815001/5182475815001_5779872980001_5779253509001-th.jpg?pubId=5182475815001&videoId=5779253509001",
                "imgh": 219,
                "imgw": 450,
                "isHD": false,
                "language": 1,
                "lic": false,
                "link": "https://www.oreotv.website/live/sony/liv.m3u8?live=5779253509001",
                "linkp": "a",
                "live": false,
                "name": "BloombergQuint",
                "tok": "widevine",
                "tokj": "hello",
                "trigger": false,
                "z": false,
                "zee": false
            },
            {
                "age": "Mozilla/5.0 (Linux; Android 5.0.1; HTC One_M8) AppleWebKit/537.36 (KHTML, like Gecko) Chrome/72.0.3626.76 Mobile Safari/537.36",
                "cardl": 300,
                "cardw": 450,
                "category": 5,
                "channel_id": 155,
                "drm": false,
                "hd": false,
                "icon": "http://httpsony-a.akamaihd.net/5182475815001/5182475815001_6031041170001_6028980084001-th.jpg?pubId=5182475815001&videoId=6028980084001",
                "imgh": 219,
                "imgw": 450,
                "isHD": false,
                "language": 1,
                "lic": false,
                "link": "https://www.oreotv.website/live/sony/liv.m3u8?live=6028980084001",
                "linkp": "a",
                "live": false,
                "name": "Polimer News",
                "tok": "widevine",
                "tokj": "hello",
                "trigger": false,
                "z": false,
                "zee": false
            },
            {
                "age": "Mozilla/5.0 (Linux; Android 5.0.1; HTC One_M8) AppleWebKit/537.36 (KHTML, like Gecko) Chrome/72.0.3626.76 Mobile Safari/537.36",
                "cardl": 300,
                "cardw": 450,
                "category": 5,
                "channel_id": 155,
                "drm": false,
                "hd": false,
                "icon": "http://httpsony-a.akamaihd.net/5182475815001/5182475815001_6031049886001_6028990895001-th.jpg?pubId=5182475815001&videoId=6028990895001",
                "imgh": 219,
                "imgw": 450,
                "isHD": false,
                "language": 1,
                "lic": false,
                "link": "https://www.oreotv.website/live/sony/liv.m3u8?live=6028990895001",
                "linkp": "a",
                "live": false,
                "name": "T News",
                "tok": "widevine",
                "tokj": "hello",
                "trigger": false,
                "z": false,
                "zee": false
            },
            {
                "age": "Mozilla/5.0 (Linux; Android 5.0.1; HTC One_M8) AppleWebKit/537.36 (KHTML, like Gecko) Chrome/72.0.3626.76 Mobile Safari/537.36",
                "cardl": 300,
                "cardw": 450,
                "category": 5,
                "channel_id": 155,
                "drm": false,
                "hd": false,
                "icon": "http://httpsony-a.akamaihd.net/5182475815001/5182475815001_6031049944001_6028984232001-th.jpg?pubId=5182475815001&videoId=6028984232001",
                "imgh": 219,
                "imgw": 450,
                "isHD": false,
                "language": 1,
                "lic": false,
                "link": "https://www.oreotv.website/live/sony/liv.m3u8?live=6028984232001",
                "linkp": "a",
                "live": false,
                "name": "V6 News",
                "tok": "widevine",
                "tokj": "hello",
                "trigger": false,
                "z": false,
                "zee": false
            },
            {
                "age": "Mozilla/5.0 (Linux; Android 5.0.1; HTC One_M8) AppleWebKit/537.36 (KHTML, like Gecko) Chrome/72.0.3626.76 Mobile Safari/537.36",
                "cardl": 300,
                "cardw": 450,
                "category": 5,
                "channel_id": 155,
                "drm": false,
                "hd": false,
                "icon": "http://httpsony-a.akamaihd.net/5182475815001/5182475815001_6031001555001_6028984220001-th.jpg?pubId=5182475815001&videoId=6028984220001",
                "imgh": 219,
                "imgw": 450,
                "isHD": false,
                "language": 1,
                "lic": false,
                "link": "https://www.oreotv.website/live/sony/liv.m3u8?live=6028984220001",
                "linkp": "a",
                "live": false,
                "name": "ABN Andhra Jyothi",
                "tok": "widevine",
                "tokj": "hello",
                "trigger": false,
                "z": false,
                "zee": false
            },
            {
                "age": "Mozilla/5.0 (Linux; Android 5.0.1; HTC One_M8) AppleWebKit/537.36 (KHTML, like Gecko) Chrome/72.0.3626.76 Mobile Safari/537.36",
                "cardl": 300,
                "cardw": 450,
                "category": 5,
                "channel_id": 155,
                "drm": false,
                "hd": false,
                "icon": "http://httpsony-a.akamaihd.net/5182475815001/5182475815001_6035042469001_6032167502001-th.jpg?pubId=5182475815001&videoId=6032167502001",
                "imgh": 219,
                "imgw": 450,
                "isHD": false,
                "language": 1,
                "lic": false,
                "link": "https://www.oreotv.website/live/sony/liv.m3u8?live=6032167502001",
                "linkp": "a",
                "live": false,
                "name": "Isai Aruvi",
                "tok": "widevine",
                "tokj": "hello",
                "trigger": false,
                "z": false,
                "zee": false
            },
            {
                "age": "Mozilla/5.0 (Linux; Android 5.0.1; HTC One_M8) AppleWebKit/537.36 (KHTML, like Gecko) Chrome/72.0.3626.76 Mobile Safari/537.36",
                "cardl": 300,
                "cardw": 450,
                "category": 5,
                "channel_id": 155,
                "drm": false,
                "hd": false,
                "icon": "http://httpsony-a.akamaihd.net/5182475815001/5182475815001_6035060483001_6032159875001-th.jpg?pubId=5182475815001&videoId=6032159875001",
                "imgh": 219,
                "imgw": 450,
                "isHD": false,
                "language": 1,
                "lic": false,
                "link": "https://www.oreotv.website/live/sony/liv.m3u8?live=6032159875001",
                "linkp": "a",
                "live": false,
                "name": "Amrita TV",
                "tok": "widevine",
                "tokj": "hello",
                "trigger": false,
                "z": false,
                "zee": false
            },
            {
                "age": "Mozilla/5.0 (Linux; Android 5.0.1; HTC One_M8) AppleWebKit/537.36 (KHTML, like Gecko) Chrome/72.0.3626.76 Mobile Safari/537.36",
                "cardl": 300,
                "cardw": 450,
                "category": 5,
                "channel_id": 155,
                "drm": false,
                "hd": false,
                "icon": "http://httpsony-a.akamaihd.net/5182475815001/5182475815001_6035060490001_6032149323001-th.jpg?pubId=5182475815001&videoId=6032149323001",
                "imgh": 219,
                "imgw": 450,
                "isHD": false,
                "language": 1,
                "lic": false,
                "link": "https://www.oreotv.website/live/sony/liv.m3u8?live=6032149323001",
                "linkp": "a",
                "live": false,
                "name": "Kalaignar TV",
                "tok": "widevine",
                "tokj": "hello",
                "trigger": false,
                "z": false,
                "zee": false
            },
            {
                "age": "Mozilla/5.0 (Linux; Android 5.0.1; HTC One_M8) AppleWebKit/537.36 (KHTML, like Gecko) Chrome/72.0.3626.76 Mobile Safari/537.36",
                "cardl": 300,
                "cardw": 450,
                "category": 5,
                "channel_id": 155,
                "drm": false,
                "hd": false,
                "icon": "http://httpsony-a.akamaihd.net/5182475815001/5182475815001_6035042423001_6032159920001-th.jpg?pubId=5182475815001&videoId=6032159920001",
                "imgh": 219,
                "imgw": 450,
                "isHD": false,
                "language": 1,
                "lic": false,
                "link": "https://www.oreotv.website/live/sony/liv.m3u8?live=6032159920001",
                "linkp": "a",
                "live": false,
                "name": "Vendhar TV",
                "tok": "widevine",
                "tokj": "hello",
                "trigger": false,
                "z": false,
                "zee": false
            },
            {
                "age": "Mozilla/5.0 (Linux; Android 5.0.1; HTC One_M8) AppleWebKit/537.36 (KHTML, like Gecko) Chrome/72.0.3626.76 Mobile Safari/537.36",
                "cardl": 300,
                "cardw": 450,
                "category": 5,
                "channel_id": 155,
                "drm": false,
                "hd": false,
                "icon": "http://httpsony-a.akamaihd.net/5182475815001/5182475815001_6035072428001_6032153172001-th.jpg?pubId=5182475815001&videoId=6032153172001",
                "imgh": 219,
                "imgw": 450,
                "isHD": false,
                "language": 1,
                "lic": false,
                "link": "https://www.oreotv.website/live/sony/liv.m3u8?live=6032153172001",
                "linkp": "a",
                "live": false,
                "name": "Jaya Max",
                "tok": "widevine",
                "tokj": "hello",
                "trigger": false,
                "z": false,
                "zee": false
            },
            {
                "age": "Mozilla/5.0 (Linux; Android 5.0.1; HTC One_M8) AppleWebKit/537.36 (KHTML, like Gecko) Chrome/72.0.3626.76 Mobile Safari/537.36",
                "cardl": 300,
                "cardw": 450,
                "category": 5,
                "channel_id": 155,
                "drm": false,
                "hd": false,
                "icon": "http://httpsony-a.akamaihd.net/5182475815001/5182475815001_6035072411001_6032159937001-th.jpg?pubId=5182475815001&videoId=6032159937001",
                "imgh": 219,
                "imgw": 450,
                "isHD": false,
                "language": 1,
                "lic": false,
                "link": "https://www.oreotv.website/live/sony/liv.m3u8?live=6032159937001",
                "linkp": "a",
                "live": false,
                "name": "Vanitha TV",
                "tok": "widevine",
                "tokj": "hello",
                "trigger": false,
                "z": false,
                "zee": false
            },
            {
                "age": "Mozilla/5.0 (Linux; Android 5.0.1; HTC One_M8) AppleWebKit/537.36 (KHTML, like Gecko) Chrome/72.0.3626.76 Mobile Safari/537.36",
                "cardl": 300,
                "cardw": 450,
                "category": 5,
                "channel_id": 155,
                "drm": false,
                "hd": false,
                "icon": "http://httpsony-a.akamaihd.net/5182475815001/5182475815001_6035072394001_6032163534001-th.jpg?pubId=5182475815001&videoId=6032163534001",
                "imgh": 219,
                "imgw": 450,
                "isHD": false,
                "language": 1,
                "lic": false,
                "link": "https://www.oreotv.website/live/sony/liv.m3u8?live=6032163534001",
                "linkp": "a",
                "live": false,
                "name": "Janam TV",
                "tok": "widevine",
                "tokj": "hello",
                "trigger": false,
                "z": false,
                "zee": false
            },
            {
                "age": "Mozilla/5.0 (Linux; Android 5.0.1; HTC One_M8) AppleWebKit/537.36 (KHTML, like Gecko) Chrome/72.0.3626.76 Mobile Safari/537.36",
                "cardl": 300,
                "cardw": 450,
                "category": 5,
                "channel_id": 155,
                "drm": false,
                "hd": false,
                "icon": "http://httpsony-a.akamaihd.net/5182475815001/5182475815001_6035072444001_6032163397001-th.jpg?pubId=5182475815001&videoId=6032163397001",
                "imgh": 219,
                "imgw": 450,
                "isHD": false,
                "language": 1,
                "lic": false,
                "link": "https://www.oreotv.website/live/sony/liv.m3u8?live=6032163397001",
                "linkp": "a",
                "live": false,
                "name": "Media One TV",
                "tok": "widevine",
                "tokj": "hello",
                "trigger": false,
                "z": false,
                "zee": false
            },
            {
                "age": "Mozilla/5.0 (Linux; Android 5.0.1; HTC One_M8) AppleWebKit/537.36 (KHTML, like Gecko) Chrome/72.0.3626.76 Mobile Safari/537.36",
                "cardl": 300,
                "cardw": 450,
                "category": 5,
                "channel_id": 155,
                "drm": false,
                "hd": false,
                "icon": "http://httpsony-a.akamaihd.net/5182475815001/5182475815001_6035072447001_6032156762001-th.jpg?pubId=5182475815001&videoId=6032156762001",
                "imgh": 219,
                "imgw": 450,
                "isHD": false,
                "language": 1,
                "lic": false,
                "link": "https://www.oreotv.website/live/sony/liv.m3u8?live=6032156762001",
                "linkp": "a",
                "live": false,
                "name": "Jaya TV",
                "tok": "widevine",
                "tokj": "hello",
                "trigger": false,
                "z": false,
                "zee": false
            },
            {
                "age": "Mozilla/5.0 (Linux; Android 5.0.1; HTC One_M8) AppleWebKit/537.36 (KHTML, like Gecko) Chrome/72.0.3626.76 Mobile Safari/537.36",
                "cardl": 300,
                "cardw": 450,
                "category": 5,
                "channel_id": 155,
                "drm": false,
                "hd": false,
                "icon": "http://httpsony-a.akamaihd.net/5182475815001/5182475815001_6035072454001_6032159677001-th.jpg?pubId=5182475815001&videoId=6032159677001",
                "imgh": 219,
                "imgw": 450,
                "isHD": false,
                "language": 1,
                "lic": false,
                "link": "https://www.oreotv.website/live/sony/liv.m3u8?live=6032159677001",
                "linkp": "a",
                "live": false,
                "name": "We TV",
                "tok": "widevine",
                "tokj": "hello",
                "trigger": false,
                "z": false,
                "zee": false
            },
            {
                "age": "Mozilla/5.0 (Linux; Android 5.0.1; HTC One_M8) AppleWebKit/537.36 (KHTML, like Gecko) Chrome/72.0.3626.76 Mobile Safari/537.36",
                "cardl": 300,
                "cardw": 450,
                "category": 5,
                "channel_id": 155,
                "drm": false,
                "hd": false,
                "icon": "http://httpsony-a.akamaihd.net/5182475815001/5182475815001_6035060566001_6032158783001-th.jpg?pubId=5182475815001&videoId=6032158783001",
                "imgh": 219,
                "imgw": 450,
                "isHD": false,
                "language": 1,
                "lic": false,
                "link": "https://www.oreotv.website/live/sony/liv.m3u8?live=6032158783001",
                "linkp": "a",
                "live": false,
                "name": "Flowers TV",
                "tok": "widevine",
                "tokj": "hello",
                "trigger": false,
                "z": false,
                "zee": false
            },
            {
                "age": "Mozilla/5.0 (Linux; Android 5.0.1; HTC One_M8) AppleWebKit/537.36 (KHTML, like Gecko) Chrome/72.0.3626.76 Mobile Safari/537.36",
                "cardl": 300,
                "cardw": 450,
                "category": 5,
                "channel_id": 155,
                "drm": false,
                "hd": false,
                "icon": "http://httpsony-a.akamaihd.net/5182475815001/5182475815001_6035060556001_6032163479001-th.jpg?pubId=5182475815001&videoId=6032163479001",
                "imgh": 219,
                "imgw": 450,
                "isHD": false,
                "language": 1,
                "lic": false,
                "link": "https://www.oreotv.website/live/sony/liv.m3u8?live=6032163479001",
                "linkp": "a",
                "live": false,
                "name": "Kerala Vision",
                "tok": "widevine",
                "tokj": "hello",
                "trigger": false,
                "z": false,
                "zee": false
            },
            {
                "age": "Mozilla/5.0 (Linux; Android 5.0.1; HTC One_M8) AppleWebKit/537.36 (KHTML, like Gecko) Chrome/72.0.3626.76 Mobile Safari/537.36",
                "cardl": 300,
                "cardw": 450,
                "category": 5,
                "channel_id": 155,
                "drm": false,
                "hd": false,
                "icon": "http://httpsony-a.akamaihd.net/5182475815001/5182475815001_6035072421001_6032162033001-th.jpg?pubId=5182475815001&videoId=6032162033001",
                "imgh": 219,
                "imgw": 450,
                "isHD": false,
                "language": 1,
                "lic": false,
                "link": "https://www.oreotv.website/live/sony/liv.m3u8?live=6032162033001",
                "linkp": "a",
                "live": false,
                "name": "Captain TV",
                "tok": "widevine",
                "tokj": "hello",
                "trigger": false,
                "z": false,
                "zee": false
            },
            {
                "age": "Mozilla/5.0 (Linux; Android 5.0.1; HTC One_M8) AppleWebKit/537.36 (KHTML, like Gecko) Chrome/72.0.3626.76 Mobile Safari/537.36",
                "cardl": 300,
                "cardw": 450,
                "category": 5,
                "channel_id": 155,
                "drm": false,
                "hd": false,
                "icon": "http://httpsony-a.akamaihd.net/5182475815001/5182475815001_6035072459001_6032158751001-th.jpg?pubId=5182475815001&videoId=6032158751001",
                "imgh": 219,
                "imgw": 450,
                "isHD": false,
                "language": 1,
                "lic": false,
                "link": "https://www.oreotv.website/live/sony/liv.m3u8?live=6032158751001",
                "linkp": "a",
                "live": false,
                "name": "Sirippoli TV",
                "tok": "widevine",
                "tokj": "hello",
                "trigger": false,
                "z": false,
                "zee": false
            },
            {
                "age": "Mozilla/5.0 (Linux; Android 5.0.1; HTC One_M8) AppleWebKit/537.36 (KHTML, like Gecko) Chrome/72.0.3626.76 Mobile Safari/537.36",
                "cardl": 300,
                "cardw": 450,
                "category": 5,
                "channel_id": 155,
                "drm": false,
                "hd": false,
                "icon": "http://httpsony-a.akamaihd.net/5182475815001/5182475815001_6035072420001_6032156304001-th.jpg?pubId=5182475815001&videoId=6032156304001",
                "imgh": 219,
                "imgw": 450,
                "isHD": false,
                "language": 1,
                "lic": false,
                "link": "https://www.oreotv.website/live/sony/liv.m3u8?live=6032156304001",
                "linkp": "a",
                "live": false,
                "name": "Kairali TV",
                "tok": "widevine",
                "tokj": "hello",
                "trigger": false,
                "z": false,
                "zee": false
            },
            {
                "age": "Mozilla/5.0 (Linux; Android 5.0.1; HTC One_M8) AppleWebKit/537.36 (KHTML, like Gecko) Chrome/72.0.3626.76 Mobile Safari/537.36",
                "cardl": 300,
                "cardw": 450,
                "category": 5,
                "channel_id": 155,
                "drm": false,
                "hd": false,
                "icon": "http://httpsony-a.akamaihd.net/5182475815001/5182475815001_6035072441001_6032158769001-th.jpg?pubId=5182475815001&videoId=6032158769001",
                "imgh": 219,
                "imgw": 450,
                "isHD": false,
                "language": 1,
                "lic": false,
                "link": "https://www.oreotv.website/live/sony/liv.m3u8?live=6032158769001",
                "linkp": "a",
                "live": false,
                "name": "Mazhavil Manorama",
                "tok": "widevine",
                "tokj": "hello",
                "trigger": false,
                "z": false,
                "zee": false
            },
            {
                "age": "Mozilla/5.0 (Linux; Android 5.0.1; HTC One_M8) AppleWebKit/537.36 (KHTML, like Gecko) Chrome/72.0.3626.76 Mobile Safari/537.36",
                "cardl": 300,
                "cardw": 450,
                "category": 5,
                "channel_id": 155,
                "drm": false,
                "hd": false,
                "icon": "http://httpsony-a.akamaihd.net/5182475815001/5182475815001_6035042435001_6032159950001-th.jpg?pubId=5182475815001&videoId=6032159950001",
                "imgh": 219,
                "imgw": 450,
                "isHD": false,
                "language": 1,
                "lic": false,
                "link": "https://www.oreotv.website/live/sony/liv.m3u8?live=6032159950001",
                "linkp": "a",
                "live": false,
                "name": "Puthuyugam TV",
                "tok": "widevine",
                "tokj": "hello",
                "trigger": false,
                "z": false,
                "zee": false
            },
            {
                "age": "Mozilla/5.0 (Linux; Android 5.0.1; HTC One_M8) AppleWebKit/537.36 (KHTML, like Gecko) Chrome/72.0.3626.76 Mobile Safari/537.36",
                "cardl": 300,
                "cardw": 450,
                "category": 5,
                "channel_id": 155,
                "drm": false,
                "hd": false,
                "icon": "http://httpsony-a.akamaihd.net/5182475815001/5182475815001_6031049870001_6028983031001-th.jpg?pubId=5182475815001&videoId=6028983031001",
                "imgh": 219,
                "imgw": 450,
                "isHD": false,
                "language": 1,
                "lic": false,
                "link": "https://www.oreotv.website/live/sony/liv.m3u8?live=6028983031001",
                "linkp": "a",
                "live": false,
                "name": "Sakshi TV",
                "tok": "widevine",
                "tokj": "hello",
                "trigger": false,
                "z": false,
                "zee": false
            },
            {
                "age": "Mozilla/5.0 (Linux; Android 5.0.1; HTC One_M8) AppleWebKit/537.36 (KHTML, like Gecko) Chrome/72.0.3626.76 Mobile Safari/537.36",
                "cardl": 300,
                "cardw": 450,
                "category": 5,
                "channel_id": 155,
                "drm": false,
                "hd": false,
                "icon": "http://httpsony-a.akamaihd.net/5182475815001/5182475815001_6031041141001_6028983060001-th.jpg?pubId=5182475815001&videoId=6028983060001",
                "imgh": 219,
                "imgw": 450,
                "isHD": false,
                "language": 1,
                "lic": false,
                "link": "https://www.oreotv.website/live/sony/liv.m3u8?live=6028983060001",
                "linkp": "a",
                "live": false,
                "name": "Manorama News",
                "tok": "widevine",
                "tokj": "hello",
                "trigger": false,
                "z": false,
                "zee": false
            },
            {
                "age": "Mozilla/5.0 (Linux; Android 5.0.1; HTC One_M8) AppleWebKit/537.36 (KHTML, like Gecko) Chrome/72.0.3626.76 Mobile Safari/537.36",
                "cardl": 300,
                "cardw": 450,
                "category": 5,
                "channel_id": 155,
                "drm": false,
                "hd": false,
                "icon": "http://httpsony-a.akamaihd.net/5182475815001/5182475815001_6031049933001_6028987145001-th.jpg?pubId=5182475815001&videoId=6028987145001",
                "imgh": 219,
                "imgw": 450,
                "isHD": false,
                "language": 1,
                "lic": false,
                "link": "https://www.oreotv.website/live/sony/liv.m3u8?live=6028987145001",
                "linkp": "a",
                "live": false,
                "name": "TV5 Kannada",
                "tok": "widevine",
                "tokj": "hello",
                "trigger": false,
                "z": false,
                "zee": false
            },
            {
                "age": "Mozilla/5.0 (Linux; Android 5.0.1; HTC One_M8) AppleWebKit/537.36 (KHTML, like Gecko) Chrome/72.0.3626.76 Mobile Safari/537.36",
                "cardl": 300,
                "cardw": 450,
                "category": 5,
                "channel_id": 155,
                "drm": false,
                "hd": false,
                "icon": "http://httpsony-a.akamaihd.net/5182475815001/5182475815001_6031041167001_6028987308001-th.jpg?pubId=5182475815001&videoId=6028987308001",
                "imgh": 219,
                "imgw": 450,
                "isHD": false,
                "language": 1,
                "lic": false,
                "link": "https://www.oreotv.website/live/sony/liv.m3u8?live=6028987308001",
                "linkp": "a",
                "live": false,
                "name": "People TV",
                "tok": "widevine",
                "tokj": "hello",
                "trigger": false,
                "z": false,
                "zee": false
            },
            {
                "age": "Mozilla/5.0 (Linux; Android 5.0.1; HTC One_M8) AppleWebKit/537.36 (KHTML, like Gecko) Chrome/72.0.3626.76 Mobile Safari/537.36",
                "cardl": 300,
                "cardw": 450,
                "category": 5,
                "channel_id": 155,
                "drm": false,
                "hd": false,
                "icon": "http://httpsony-a.akamaihd.net/5182475815001/5182475815001_6031001569001_6028994131001-th.jpg?pubId=5182475815001&videoId=6028994131001",
                "imgh": 219,
                "imgw": 450,
                "isHD": false,
                "language": 1,
                "lic": false,
                "link": "https://www.oreotv.website/live/sony/liv.m3u8?live=6028994131001",
                "linkp": "a",
                "live": false,
                "name": "CVR News",
                "tok": "widevine",
                "tokj": "hello",
                "trigger": false,
                "z": false,
                "zee": false
            },
            {
                "age": "Mozilla/5.0 (Linux; Android 5.0.1; HTC One_M8) AppleWebKit/537.36 (KHTML, like Gecko) Chrome/72.0.3626.76 Mobile Safari/537.36",
                "cardl": 300,
                "cardw": 450,
                "category": 5,
                "channel_id": 155,
                "drm": false,
                "hd": false,
                "icon": "http://httpsony-a.akamaihd.net/5182475815001/5182475815001_6031049871001_6028983972001-th.jpg?pubId=5182475815001&videoId=6028983972001",
                "imgh": 219,
                "imgw": 450,
                "isHD": false,
                "language": 1,
                "lic": false,
                "link": "https://www.oreotv.website/live/sony/liv.m3u8?live=6028983972001",
                "linkp": "a",
                "live": false,
                "name": "Seithigal TV",
                "tok": "widevine",
                "tokj": "hello",
                "trigger": false,
                "z": false,
                "zee": false
            },
            {
                "age": "Mozilla/5.0 (Linux; Android 5.0.1; HTC One_M8) AppleWebKit/537.36 (KHTML, like Gecko) Chrome/72.0.3626.76 Mobile Safari/537.36",
                "cardl": 300,
                "cardw": 450,
                "category": 5,
                "channel_id": 155,
                "drm": false,
                "hd": false,
                "icon": "http://httpsony-a.akamaihd.net/5182475815001/5182475815001_6031041148001_6028986107001-th.jpg?pubId=5182475815001&videoId=6028986107001",
                "imgh": 219,
                "imgw": 450,
                "isHD": false,
                "language": 1,
                "lic": false,
                "link": "https://www.oreotv.website/live/sony/liv.m3u8?live=6028986107001",
                "linkp": "a",
                "live": false,
                "name": "Mathrubhumi News",
                "tok": "widevine",
                "tokj": "hello",
                "trigger": false,
                "z": false,
                "zee": false
            },
            {
                "age": "Mozilla/5.0 (Linux; Android 5.0.1; HTC One_M8) AppleWebKit/537.36 (KHTML, like Gecko) Chrome/72.0.3626.76 Mobile Safari/537.36",
                "cardl": 300,
                "cardw": 450,
                "category": 5,
                "channel_id": 155,
                "drm": false,
                "hd": false,
                "icon": "http://httpsony-a.akamaihd.net/5182475815001/5182475815001_6031049867001_6028987185001-th.jpg?pubId=5182475815001&videoId=6028987185001",
                "imgh": 219,
                "imgw": 450,
                "isHD": false,
                "language": 1,
                "lic": false,
                "link": "https://www.oreotv.website/live/sony/liv.m3u8?live=6028987185001",
                "linkp": "a",
                "live": false,
                "name": "Raj News 24x7 ",
                "tok": "widevine",
                "tokj": "hello",
                "trigger": false,
                "z": false,
                "zee": false
            },
            {
                "age": "Mozilla/5.0 (Linux; Android 5.0.1; HTC One_M8) AppleWebKit/537.36 (KHTML, like Gecko) Chrome/72.0.3626.76 Mobile Safari/537.36",
                "cardl": 300,
                "cardw": 450,
                "category": 5,
                "channel_id": 155,
                "drm": false,
                "hd": false,
                "icon": "http://httpsony-a.akamaihd.net/5182475815001/5182475815001_6031001564001_6028990840001-th.jpg?pubId=5182475815001&videoId=6028990840001",
                "imgh": 219,
                "imgw": 450,
                "isHD": false,
                "language": 1,
                "lic": false,
                "link": "https://www.oreotv.website/live/sony/liv.m3u8?live=6028990840001",
                "linkp": "a",
                "live": false,
                "name": "AP 24x7",
                "tok": "widevine",
                "tokj": "hello",
                "trigger": false,
                "z": false,
                "zee": false
            },
            {
                "age": "Mozilla/5.0 (Linux; Android 5.0.1; HTC One_M8) AppleWebKit/537.36 (KHTML, like Gecko) Chrome/72.0.3626.76 Mobile Safari/537.36",
                "cardl": 300,
                "cardw": 450,
                "category": 5,
                "channel_id": 155,
                "drm": false,
                "hd": false,
                "icon": "http://httpsony-a.akamaihd.net/5182475815001/5182475815001_6031001581001_6028996941001-th.jpg?pubId=5182475815001&videoId=6028996941001",
                "imgh": 219,
                "imgw": 450,
                "isHD": false,
                "language": 1,
                "lic": false,
                "link": "https://www.oreotv.website/live/sony/liv.m3u8?live=6028996941001",
                "linkp": "a",
                "live": false,
                "name": "Mahaa TV",
                "tok": "widevine",
                "tokj": "hello",
                "trigger": false,
                "z": false,
                "zee": false
            },
            {
                "age": "Mozilla/5.0 (Linux; Android 5.0.1; HTC One_M8) AppleWebKit/537.36 (KHTML, like Gecko) Chrome/72.0.3626.76 Mobile Safari/537.36",
                "cardl": 300,
                "cardw": 450,
                "category": 5,
                "channel_id": 155,
                "drm": false,
                "hd": false,
                "icon": "http://httpsony-a.akamaihd.net/5182475815001/5182475815001_6031001573001_6028987221001-th.jpg?pubId=5182475815001&videoId=6028987221001",
                "imgh": 219,
                "imgw": 450,
                "isHD": false,
                "language": 1,
                "lic": false,
                "link": "https://www.oreotv.website/live/sony/liv.m3u8?live=6028987221001",
                "linkp": "a",
                "live": false,
                "name": "HMTV News",
                "tok": "widevine",
                "tokj": "hello",
                "trigger": false,
                "z": false,
                "zee": false
            },
            {
                "age": "Mozilla/5.0 (Linux; Android 5.0.1; HTC One_M8) AppleWebKit/537.36 (KHTML, like Gecko) Chrome/72.0.3626.76 Mobile Safari/537.36",
                "cardl": 300,
                "cardw": 450,
                "category": 5,
                "channel_id": 155,
                "drm": false,
                "hd": false,
                "icon": "http://httpsony-a.akamaihd.net/5182475815001/5182475815001_6031001548001_6028993330001-th.jpg?pubId=5182475815001&videoId=6028993330001",
                "imgh": 219,
                "imgw": 450,
                "isHD": false,
                "language": 1,
                "lic": false,
                "link": "https://www.oreotv.website/live/sony/liv.m3u8?live=6028993330001",
                "linkp": "a",
                "live": false,
                "name": "10TV",
                "tok": "widevine",
                "tokj": "hello",
                "trigger": false,
                "z": false,
                "zee": false
            },
            {
                "age": "Mozilla/5.0 (Linux; Android 5.0.1; HTC One_M8) AppleWebKit/537.36 (KHTML, like Gecko) Chrome/72.0.3626.76 Mobile Safari/537.36",
                "cardl": 300,
                "cardw": 450,
                "category": 5,
                "channel_id": 155,
                "drm": false,
                "hd": false,
                "icon": "http://httpsony-a.akamaihd.net/5182475815001/5182475815001_6031001574001_6028990798001-th.jpg?pubId=5182475815001&videoId=6028990798001",
                "imgh": 219,
                "imgw": 450,
                "isHD": false,
                "language": 1,
                "lic": false,
                "link": "https://www.oreotv.website/live/sony/liv.m3u8?live=6028990798001",
                "linkp": "a",
                "live": false,
                "name": "Jaya Plus",
                "tok": "widevine",
                "tokj": "hello",
                "trigger": false,
                "z": false,
                "zee": false
            },
            {
                "age": "Mozilla/5.0 (Linux; Android 5.0.1; HTC One_M8) AppleWebKit/537.36 (KHTML, like Gecko) Chrome/72.0.3626.76 Mobile Safari/537.36",
                "cardl": 300,
                "cardw": 450,
                "category": 5,
                "channel_id": 155,
                "drm": false,
                "hd": false,
                "icon": "http://httpsony-a.akamaihd.net/5182475815001/5182475815001_6031041151001_6028977844001-th.jpg?pubId=5182475815001&videoId=6028977844001",
                "imgh": 219,
                "imgw": 450,
                "isHD": false,
                "language": 1,
                "lic": false,
                "link": "https://www.oreotv.website/live/sony/liv.m3u8?live=6028977844001",
                "linkp": "a",
                "live": false,
                "name": "NTV",
                "tok": "widevine",
                "tokj": "hello",
                "trigger": false,
                "z": false,
                "zee": false
            },
            {
                "age": "Mozilla/5.0 (Linux; Android 5.0.1; HTC One_M8) AppleWebKit/537.36 (KHTML, like Gecko) Chrome/72.0.3626.76 Mobile Safari/537.36",
                "cardl": 300,
                "cardw": 450,
                "category": 5,
                "channel_id": 155,
                "drm": false,
                "hd": false,
                "icon": "http://httpsony-a.akamaihd.net/5182475815001/5182475815001_6031049940001_6028981936001-th.jpg?pubId=5182475815001&videoId=6028981936001",
                "imgh": 219,
                "imgw": 450,
                "isHD": false,
                "language": 1,
                "lic": false,
                "link": "https://www.oreotv.website/live/sony/liv.m3u8?live=6028981936001",
                "linkp": "a",
                "live": false,
                "name": "TV5 News",
                "tok": "widevine",
                "tokj": "hello",
                "trigger": false,
                "z": false,
                "zee": false
            },
            {
                "age": "Mozilla/5.0 (Linux; Android 5.0.1; HTC One_M8) AppleWebKit/537.36 (KHTML, like Gecko) Chrome/72.0.3626.76 Mobile Safari/537.36",
                "cardl": 300,
                "cardw": 450,
                "category": 5,
                "channel_id": 155,
                "drm": false,
                "hd": false,
                "icon": "http://httpsony-a.akamaihd.net/5182475815001/5182475815001_6031041175001_6028981910001-th.jpg?pubId=5182475815001&videoId=6028981910001",
                "imgh": 219,
                "imgw": 450,
                "isHD": false,
                "language": 1,
                "lic": false,
                "link": "https://www.oreotv.website/live/sony/liv.m3u8?live=6028981910001",
                "linkp": "a",
                "live": false,
                "name": "Public TV",
                "tok": "widevine",
                "tokj": "hello",
                "trigger": false,
                "z": false,
                "zee": false
            },
            {
                "age": "Mozilla/5.0 (Linux; Android 5.0.1; HTC One_M8) AppleWebKit/537.36 (KHTML, like Gecko) Chrome/72.0.3626.76 Mobile Safari/537.36",
                "cardl": 300,
                "cardw": 450,
                "category": 5,
                "channel_id": 155,
                "drm": false,
                "hd": false,
                "icon": "http://httpsony-a.akamaihd.net/5182475815001/5182475815001_6031041149001_6028978031001-th.jpg?pubId=5182475815001&videoId=6028978031001",
                "imgh": 219,
                "imgw": 450,
                "isHD": false,
                "language": 1,
                "lic": false,
                "link": "https://www.oreotv.website/live/sony/liv.m3u8?live=6028978031001",
                "linkp": "a",
                "live": false,
                "name": "News 7",
                "tok": "widevine",
                "tokj": "hello",
                "trigger": false,
                "z": false,
                "zee": false
            },
            {
                "age": "Mozilla/5.0 (Linux; Android 5.0.1; HTC One_M8) AppleWebKit/537.36 (KHTML, like Gecko) Chrome/72.0.3626.76 Mobile Safari/537.36",
                "cardl": 300,
                "cardw": 450,
                "category": 5,
                "channel_id": 155,
                "drm": false,
                "hd": false,
                "icon": "http://httpsony-a.akamaihd.net/5182475815001/5182475815001_6031049866001_6028981192001-th.jpg?pubId=5182475815001&videoId=6028981192001",
                "imgh": 219,
                "imgw": 450,
                "isHD": false,
                "language": 1,
                "lic": false,
                "link": "https://www.oreotv.website/live/sony/liv.m3u8?live=6028981192001",
                "linkp": "a",
                "live": false,
                "name": "Puthiya Thalaimurai",
                "tok": "widevine",
                "tokj": "hello",
                "trigger": false,
                "z": false,
                "zee": false
            },
            {
                "age": "Mozilla/5.0 (Linux; Android 5.0.1; HTC One_M8) AppleWebKit/537.36 (KHTML, like Gecko) Chrome/72.0.3626.76 Mobile Safari/537.36",
                "cardl": 300,
                "cardw": 450,
                "category": 5,
                "channel_id": 155,
                "drm": false,
                "hd": false,
                "icon": "http://httpsony-a.akamaihd.net/5182475815001/5182475815001_6031049879001_6028977797001-th.jpg?pubId=5182475815001&videoId=6028977797001",
                "imgh": 219,
                "imgw": 450,
                "isHD": false,
                "language": 1,
                "lic": false,
                "link": "https://www.oreotv.website/live/sony/liv.m3u8?live=6028977797001",
                "linkp": "a",
                "live": false,
                "name": "Thanthi TV",
                "tok": "widevine",
                "tokj": "hello",
                "trigger": false,
                "z": false,
                "zee": false
            },
            {
                "age": "Mozilla/5.0 (Linux; Android 5.0.1; HTC One_M8) AppleWebKit/537.36 (KHTML, like Gecko) Chrome/72.0.3626.76 Mobile Safari/537.36",
                "cardl": 300,
                "cardw": 450,
                "category": 5,
                "channel_id": 155,
                "drm": false,
                "hd": false,
                "icon": "http://setindiapd.brightcove.com.edgesuite.net/5182475815001/2019/05/5182475815001_6039658212001_6039283771001-th.jpg?pubId=5182475815001&videoId=6039283771001",
                "imgh": 219,
                "imgw": 450,
                "isHD": false,
                "language": 1,
                "lic": false,
                "link": "https://www.oreotv.website/live/sony/liv.m3u8?live=6039283771001",
                "linkp": "a",
                "live": false,
                "name": "Raj Vissa",
                "tok": "widevine",
                "tokj": "hello",
                "trigger": false,
                "z": false,
                "zee": false
            },
            {
                "age": "Mozilla/5.0 (Linux; Android 5.0.1; HTC One_M8) AppleWebKit/537.36 (KHTML, like Gecko) Chrome/72.0.3626.76 Mobile Safari/537.36",
                "cardl": 300,
                "cardw": 450,
                "category": 5,
                "channel_id": 155,
                "drm": false,
                "hd": false,
                "icon": "http://setindiapd.brightcove.com.edgesuite.net/5182475815001/2019/05/5182475815001_6039664979001_6039280521001-th.jpg?pubId=5182475815001&videoId=6039280521001",
                "imgh": 219,
                "imgw": 450,
                "isHD": false,
                "language": 1,
                "lic": false,
                "link": "https://www.oreotv.website/live/sony/liv.m3u8?live=6039280521001",
                "linkp": "a",
                "live": false,
                "name": "Murasu TV",
                "tok": "widevine",
                "tokj": "hello",
                "trigger": false,
                "z": false,
                "zee": false
            }
        ],
        "title": "Welcome to array 2"
    }
]