[
    {
        "logo": "https://apk.co/images/ozee-entertainment-now-141616.png",
        "name": "ZEE Official",
        "sname": "100+ Channels",
        "ssname": "Works World Wide",
        "streaming": [
            {
                "age": "Hotstar;in.startv.hotstar/8.1.6 (Linux;Android 5.0.1) ExoPlayerLib/2.9.5",
                "cardl": 300,
                "cardw": 350,
                "category": 12,
                "channel_id": 173,
                "drm": false,
                "hd": false,
                "icon": "http://files.bdhsbbsr.com/uploads/item/7419.png",
                "imgh": 250,
                "imgw": 192,
                "isHD": true,
                "language": 1,
                "lic": false,
                "link": "https://oreotv.website/live/aaj/aajtakhd.m3u8",
                "linkp": "a",
                "live": false,
                "name": "Aaj Tak HD",
                "tok": "widevine",
                "tokj": "thoptv",
                "trigger": false,
                "z": false,
                "zee": false
            },
            {
                "age": "Mozilla/5.0 (Windows NT 6.1; Win64; x64) AppleWebKit/537.36 (KHTML, like Gecko) Chrome/62.0.3202.94 Safari/537.36",
                "cardl": 300,
                "cardw": 350,
                "category": 8,
                "channel_id": 111,
                "drm": false,
                "hd": false,
                "icon": "https://www.tvsa.co.za/images/uploads/thumbs/0107446.jpeg",
                "imgh": 250,
                "imgw": 192,
                "isHD": true,
                "language": 6,
                "lic": false,
                "link": "world",
                "linkp": "a",
                "live": false,
                "name": "Zee World",
                "tok": "widevine",
                "tokj": "hello",
                "trigger": false,
                "z": false,
                "zee": true
            },
            {
                "age": "Mozilla/5.0 (Windows NT 6.1; Win64; x64) AppleWebKit/537.36 (KHTML, like Gecko) Chrome/62.0.3202.94 Safari/537.36",
                "cardl": 300,
                "cardw": 350,
                "category": 8,
                "channel_id": 111,
                "drm": false,
                "hd": false,
                "icon": "https://logoeps.com/wp-content/uploads/2013/06/zee-tv-vector-logo.png",
                "imgh": 250,
                "imgw": 192,
                "isHD": true,
                "language": 6,
                "lic": false,
                "link": "zeetvsd",
                "linkp": "a",
                "live": false,
                "name": "ZeeTv INDIA",
                "tok": "widevine",
                "tokj": "hello",
                "trigger": false,
                "z": false,
                "zee": true
            },
            {
                "age": "Mozilla/5.0 (Windows NT 6.1; Win64; x64) AppleWebKit/537.36 (KHTML, like Gecko) Chrome/62.0.3202.94 Safari/537.36",
                "cardl": 300,
                "cardw": 350,
                "category": 8,
                "channel_id": 111,
                "drm": false,
                "hd": false,
                "icon": "https://logoeps.com/wp-content/uploads/2013/06/zee-tv-vector-logo.png",
                "imgh": 250,
                "imgw": 192,
                "isHD": true,
                "language": 6,
                "lic": false,
                "link": "zeetvhd",
                "linkp": "a",
                "live": false,
                "name": "ZeeTV INDIA HD",
                "tok": "widevine",
                "tokj": "hello",
                "trigger": false,
                "z": false,
                "zee": true
            },
            {
                "age": "Mozilla/5.0 (Windows NT 6.1; Win64; x64) AppleWebKit/537.36 (KHTML, like Gecko) Chrome/62.0.3202.94 Safari/537.36",
                "cardl": 300,
                "cardw": 350,
                "category": 8,
                "channel_id": 111,
                "drm": false,
                "hd": false,
                "icon": "http://1.bp.blogspot.com/-M-zt6PkIeCM/TgYlV0JDcgI/AAAAAAAADqA/WgPyjAIxR4A/s1600/zee+old+logo.jpg",
                "imgh": 250,
                "imgw": 192,
                "isHD": false,
                "language": 6,
                "lic": false,
                "link": "ztvsdusa",
                "linkp": "a",
                "live": false,
                "name": "ZeeTV USA",
                "tok": "widevine",
                "tokj": "hello",
                "trigger": false,
                "z": false,
                "zee": true
            },
            {
                "age": "Mozilla/5.0 (Windows NT 6.1; Win64; x64) AppleWebKit/537.36 (KHTML, like Gecko) Chrome/62.0.3202.94 Safari/537.36",
                "cardl": 300,
                "cardw": 350,
                "category": 8,
                "channel_id": 111,
                "drm": false,
                "hd": false,
                "icon": "http://1.bp.blogspot.com/-M-zt6PkIeCM/TgYlV0JDcgI/AAAAAAAADqA/WgPyjAIxR4A/s1600/zee+old+logo.jpg",
                "imgh": 250,
                "imgw": 192,
                "isHD": true,
                "language": 6,
                "lic": false,
                "link": "ztvhdusa",
                "linkp": "a",
                "live": false,
                "name": "ZeeTV USA HD",
                "tok": "widevine",
                "tokj": "hello",
                "trigger": false,
                "z": false,
                "zee": true
            },
            {
                "age": "Mozilla/5.0 (Windows NT 6.1; Win64; x64) AppleWebKit/537.36 (KHTML, like Gecko) Chrome/62.0.3202.94 Safari/537.36",
                "cardl": 300,
                "cardw": 350,
                "category": 8,
                "channel_id": 111,
                "drm": false,
                "hd": false,
                "icon": "http://1.bp.blogspot.com/-M-zt6PkIeCM/TgYlV0JDcgI/AAAAAAAADqA/WgPyjAIxR4A/s1600/zee+old+logo.jpg",
                "imgh": 250,
                "imgw": 192,
                "isHD": true,
                "language": 6,
                "lic": false,
                "link": "ztvuk",
                "linkp": "a",
                "live": false,
                "name": "ZeeTV UK",
                "tok": "widevine",
                "tokj": "hello",
                "trigger": false,
                "z": false,
                "zee": true
            },
            {
                "age": "Mozilla/5.0 (Windows NT 6.1; Win64; x64) AppleWebKit/537.36 (KHTML, like Gecko) Chrome/62.0.3202.94 Safari/537.36",
                "cardl": 300,
                "cardw": 350,
                "category": 8,
                "channel_id": 111,
                "drm": false,
                "hd": false,
                "icon": "http://1.bp.blogspot.com/-M-zt6PkIeCM/TgYlV0JDcgI/AAAAAAAADqA/WgPyjAIxR4A/s1600/zee+old+logo.jpg",
                "imgh": 250,
                "imgw": 192,
                "isHD": true,
                "language": 6,
                "lic": false,
                "link": "canadahd",
                "linkp": "a",
                "live": false,
                "name": "ZeeTV CANADA HD",
                "tok": "widevine",
                "tokj": "hello",
                "trigger": false,
                "z": false,
                "zee": true
            },
            {
                "age": "Mozilla/5.0 (Windows NT 6.1; Win64; x64) AppleWebKit/537.36 (KHTML, like Gecko) Chrome/62.0.3202.94 Safari/537.36",
                "cardl": 300,
                "cardw": 350,
                "category": 8,
                "channel_id": 111,
                "drm": false,
                "hd": false,
                "icon": "http://inchincloser.files.wordpress.com/2012/04/zee-apac.jpg",
                "imgh": 250,
                "imgw": 192,
                "isHD": true,
                "language": 6,
                "lic": false,
                "link": "apacsea",
                "linkp": "a",
                "live": false,
                "name": "ZeeTV APAC (For 18 Countries)",
                "tok": "widevine",
                "tokj": "hello",
                "trigger": false,
                "z": false,
                "zee": true
            },
            {
                "age": "Mozilla/5.0 (Windows NT 6.1; Win64; x64) AppleWebKit/537.36 (KHTML, like Gecko) Chrome/62.0.3202.94 Safari/537.36",
                "cardl": 300,
                "cardw": 350,
                "category": 8,
                "channel_id": 111,
                "drm": false,
                "hd": false,
                "icon": "https://www.bizasialive.com/wp/wp-content/uploads/2016/11/andtvhd002.jpg",
                "imgh": 250,
                "imgw": 192,
                "isHD": false,
                "language": 6,
                "lic": false,
                "link": "andtvsd",
                "linkp": "a",
                "live": false,
                "name": "&Tv INDIA",
                "tok": "widevine",
                "tokj": "hello",
                "trigger": false,
                "z": false,
                "zee": true
            },
            {
                "age": "Mozilla/5.0 (Windows NT 6.1; Win64; x64) AppleWebKit/537.36 (KHTML, like Gecko) Chrome/62.0.3202.94 Safari/537.36",
                "cardl": 300,
                "cardw": 350,
                "category": 8,
                "channel_id": 111,
                "drm": false,
                "hd": false,
                "icon": "https://www.bizasialive.com/wp/wp-content/uploads/2016/11/andtvhd002.jpg",
                "imgh": 250,
                "imgw": 192,
                "isHD": true,
                "language": 6,
                "lic": false,
                "link": "andtvhd",
                "linkp": "a",
                "live": false,
                "name": "&Tv HD INDIA",
                "tok": "widevine",
                "tokj": "hello",
                "trigger": false,
                "z": false,
                "zee": true
            },
            {
                "age": "Mozilla/5.0 (Windows NT 6.1; Win64; x64) AppleWebKit/537.36 (KHTML, like Gecko) Chrome/62.0.3202.94 Safari/537.36",
                "cardl": 300,
                "cardw": 350,
                "category": 8,
                "channel_id": 111,
                "drm": false,
                "hd": false,
                "icon": "https://www.bizasialive.com/wp/wp-content/uploads/2016/11/andtvhd002.jpg",
                "imgh": 250,
                "imgw": 192,
                "isHD": true,
                "language": 6,
                "lic": false,
                "link": "andtvhd",
                "linkp": "a",
                "live": false,
                "name": "&Tv UK",
                "tok": "widevine",
                "tokj": "hello",
                "trigger": false,
                "z": false,
                "zee": true
            },
            {
                "age": "Mozilla/5.0 (Windows NT 6.1; Win64; x64) AppleWebKit/537.36 (KHTML, like Gecko) Chrome/62.0.3202.94 Safari/537.36",
                "cardl": 300,
                "cardw": 350,
                "category": 8,
                "channel_id": 111,
                "drm": false,
                "hd": false,
                "icon": "https://www.bizasialive.com/wp/wp-content/uploads/2016/11/andtvhd002.jpg",
                "imgh": 250,
                "imgw": 192,
                "isHD": true,
                "language": 6,
                "lic": false,
                "link": "andtvhdusa",
                "linkp": "a",
                "live": false,
                "name": "&Tv HD USA",
                "tok": "widevine",
                "tokj": "hello",
                "trigger": false,
                "z": false,
                "zee": true
            },
            {
                "age": "Mozilla/5.0 (Windows NT 6.1; Win64; x64) AppleWebKit/537.36 (KHTML, like Gecko) Chrome/62.0.3202.94 Safari/537.36",
                "cardl": 300,
                "cardw": 350,
                "category": 8,
                "channel_id": 111,
                "drm": false,
                "hd": false,
                "icon": "https://www.bizasialive.com/wp/wp-content/uploads/2016/11/andtvhd002.jpg",
                "imgh": 250,
                "imgw": 192,
                "isHD": true,
                "language": 6,
                "lic": false,
                "link": "andpicssd",
                "linkp": "a",
                "live": false,
                "name": "&Tv HD INDIA",
                "tok": "widevine",
                "tokj": "hello",
                "trigger": false,
                "z": false,
                "zee": true
            },
            {
                "age": "Mozilla/5.0 (Windows NT 6.1; Win64; x64) AppleWebKit/537.36 (KHTML, like Gecko) Chrome/62.0.3202.94 Safari/537.36",
                "cardl": 300,
                "cardw": 350,
                "category": 8,
                "channel_id": 111,
                "drm": false,
                "hd": false,
                "icon": "https://vignette.wikia.nocookie.net/logopedia/images/d/d4/%26pictures_HD.png",
                "imgh": 250,
                "imgw": 192,
                "isHD": true,
                "language": 6,
                "lic": false,
                "link": "andpicssd",
                "linkp": "a",
                "live": false,
                "name": "&Pictures HD INDIA",
                "tok": "widevine",
                "tokj": "hello",
                "trigger": false,
                "z": false,
                "zee": true
            },
            {
                "age": "Mozilla/5.0 (Windows NT 6.1; Win64; x64) AppleWebKit/537.36 (KHTML, like Gecko) Chrome/62.0.3202.94 Safari/537.36",
                "cardl": 300,
                "cardw": 350,
                "category": 8,
                "channel_id": 111,
                "drm": false,
                "hd": false,
                "icon": "https://logoeps.com/wp-content/uploads/2013/06/zee-tv-vector-logo.png",
                "imgh": 250,
                "imgw": 192,
                "isHD": true,
                "language": 6,
                "lic": false,
                "link": "andflix",
                "linkp": "a",
                "live": false,
                "name": "&flix",
                "tok": "widevine",
                "tokj": "hello",
                "trigger": false,
                "z": false,
                "zee": true
            },
            {
                "age": "Mozilla/5.0 (Windows NT 6.1; Win64; x64) AppleWebKit/537.36 (KHTML, like Gecko) Chrome/62.0.3202.94 Safari/537.36",
                "cardl": 300,
                "cardw": 350,
                "category": 8,
                "channel_id": 111,
                "drm": false,
                "hd": false,
                "icon": "https://logoeps.com/wp-content/uploads/2013/06/zee-tv-vector-logo.png",
                "imgh": 250,
                "imgw": 192,
                "isHD": true,
                "language": 6,
                "lic": false,
                "link": "andflixhd",
                "linkp": "a",
                "live": false,
                "name": "andflixhd",
                "tok": "widevine",
                "tokj": "hello",
                "trigger": false,
                "z": false,
                "zee": true
            },
            {
                "age": "Mozilla/5.0 (Windows NT 6.1; Win64; x64) AppleWebKit/537.36 (KHTML, like Gecko) Chrome/62.0.3202.94 Safari/537.36",
                "cardl": 300,
                "cardw": 350,
                "category": 8,
                "channel_id": 111,
                "drm": false,
                "hd": false,
                "icon": "http://bestmediainfo.com/wp-content/uploads/2017/09/andPrive-HD_6.jpg",
                "imgh": 250,
                "imgw": 192,
                "isHD": true,
                "language": 6,
                "lic": false,
                "link": "andprivehd",
                "linkp": "a",
                "live": false,
                "name": "andprivehd",
                "tok": "widevine",
                "tokj": "hello",
                "trigger": false,
                "z": false,
                "zee": true
            },
            {
                "age": "Mozilla/5.0 (Windows NT 6.1; Win64; x64) AppleWebKit/537.36 (KHTML, like Gecko) Chrome/62.0.3202.94 Safari/537.36",
                "cardl": 300,
                "cardw": 350,
                "category": 8,
                "channel_id": 111,
                "drm": false,
                "hd": false,
                "icon": "https://vignette.wikia.nocookie.net/logopedia/images/1/1b/9XM_logo.png",
                "imgh": 250,
                "imgw": 192,
                "isHD": true,
                "language": 6,
                "lic": false,
                "link": "9xm",
                "linkp": "a",
                "live": false,
                "name": "9xm",
                "tok": "widevine",
                "tokj": "hello",
                "trigger": false,
                "z": false,
                "zee": true
            },
            {
                "age": "Mozilla/5.0 (Windows NT 6.1; Win64; x64) AppleWebKit/537.36 (KHTML, like Gecko) Chrome/62.0.3202.94 Safari/537.36",
                "cardl": 300,
                "cardw": 350,
                "category": 8,
                "channel_id": 111,
                "drm": false,
                "hd": false,
                "icon": "https://vignette.wikia.nocookie.net/logopedia/images/1/14/9XO.jpg",
                "imgh": 250,
                "imgw": 192,
                "isHD": true,
                "language": 6,
                "lic": false,
                "link": "9xo",
                "linkp": "a",
                "live": false,
                "name": "9xo",
                "tok": "widevine",
                "tokj": "hello",
                "trigger": false,
                "z": false,
                "zee": true
            },
            {
                "age": "Mozilla/5.0 (Windows NT 6.1; Win64; x64) AppleWebKit/537.36 (KHTML, like Gecko) Chrome/62.0.3202.94 Safari/537.36",
                "cardl": 300,
                "cardw": 350,
                "category": 8,
                "channel_id": 111,
                "drm": false,
                "hd": false,
                "icon": "https://vignette.wikia.nocookie.net/logopedia/images/5/56/9X_Tashan_Logo.jpg",
                "imgh": 250,
                "imgw": 192,
                "isHD": true,
                "language": 6,
                "lic": false,
                "link": "9xtashan",
                "linkp": "a",
                "live": false,
                "name": "9xtashan",
                "tok": "widevine",
                "tokj": "hello",
                "trigger": false,
                "z": false,
                "zee": true
            },
            {
                "age": "Mozilla/5.0 (Windows NT 6.1; Win64; x64) AppleWebKit/537.36 (KHTML, like Gecko) Chrome/62.0.3202.94 Safari/537.36",
                "cardl": 300,
                "cardw": 350,
                "category": 8,
                "channel_id": 111,
                "drm": false,
                "hd": false,
                "icon": "https://banner2.kisspng.com/20180515/xbq/kisspng-9x-jalwa-television-channel-9x-media-streaming-med-5afb2557ac37b5.4018298815264085357054.jpg",
                "imgh": 250,
                "imgw": 192,
                "isHD": true,
                "language": 6,
                "lic": false,
                "link": "9xjalwa",
                "linkp": "a",
                "live": false,
                "name": "9xjalwa",
                "tok": "widevine",
                "tokj": "hello",
                "trigger": false,
                "z": false,
                "zee": true
            },
            {
                "age": "Mozilla/5.0 (Windows NT 6.1; Win64; x64) AppleWebKit/537.36 (KHTML, like Gecko) Chrome/62.0.3202.94 Safari/537.36",
                "cardl": 300,
                "cardw": 350,
                "category": 8,
                "channel_id": 111,
                "drm": false,
                "hd": false,
                "icon": "https://logoeps.com/wp-content/uploads/2013/06/zee-tv-vector-logo.png",
                "imgh": 250,
                "imgw": 192,
                "isHD": true,
                "language": 6,
                "lic": false,
                "link": "9xjhakaas",
                "linkp": "a",
                "live": false,
                "name": "9xjhakaas",
                "tok": "widevine",
                "tokj": "hello",
                "trigger": false,
                "z": false,
                "zee": true
            },
            {
                "age": "Mozilla/5.0 (Windows NT 6.1; Win64; x64) AppleWebKit/537.36 (KHTML, like Gecko) Chrome/62.0.3202.94 Safari/537.36",
                "cardl": 300,
                "cardw": 350,
                "category": 8,
                "channel_id": 111,
                "drm": false,
                "hd": false,
                "icon": "https://astrocontent.s3.amazonaws.com/Images/ChannelLogo/Pos/232_300.png",
                "imgh": 250,
                "imgw": 192,
                "isHD": true,
                "language": 6,
                "lic": false,
                "link": "zeetamil",
                "linkp": "a",
                "live": false,
                "name": "zeetamil",
                "tok": "widevine",
                "tokj": "hello",
                "trigger": false,
                "z": false,
                "zee": true
            },
            {
                "age": "Mozilla/5.0 (Windows NT 6.1; Win64; x64) AppleWebKit/537.36 (KHTML, like Gecko) Chrome/62.0.3202.94 Safari/537.36",
                "cardl": 300,
                "cardw": 350,
                "category": 8,
                "channel_id": 111,
                "drm": false,
                "hd": false,
                "icon": "https://mir-s3-cdn-cf.behance.net/project_modules/disp/eba6b320877779.562f2a1f9eca3.png",
                "imgh": 250,
                "imgw": 192,
                "isHD": true,
                "language": 6,
                "lic": false,
                "link": "makkaltv",
                "linkp": "a",
                "live": false,
                "name": "makkaltv",
                "tok": "widevine",
                "tokj": "hello",
                "trigger": false,
                "z": false,
                "zee": true
            },
            {
                "age": "Mozilla/5.0 (Windows NT 6.1; Win64; x64) AppleWebKit/537.36 (KHTML, like Gecko) Chrome/62.0.3202.94 Safari/537.36",
                "cardl": 300,
                "cardw": 350,
                "category": 8,
                "channel_id": 111,
                "drm": false,
                "hd": false,
                "icon": "http://www.bestmediainfo.com/wp-content/uploads/2016/03/RAJ-TV.jpg",
                "imgh": 250,
                "imgw": 192,
                "isHD": true,
                "language": 6,
                "lic": false,
                "link": "rajtv",
                "linkp": "a",
                "live": false,
                "name": "rajtv",
                "tok": "widevine",
                "tokj": "hello",
                "trigger": false,
                "z": false,
                "zee": true
            },
            {
                "age": "Mozilla/5.0 (Windows NT 6.1; Win64; x64) AppleWebKit/537.36 (KHTML, like Gecko) Chrome/62.0.3202.94 Safari/537.36",
                "cardl": 300,
                "cardw": 350,
                "category": 8,
                "channel_id": 111,
                "drm": false,
                "hd": false,
                "icon": "http://ik.imagekit.io/ulangotv/image/upload/59050_logo_raj_digital_plus.png",
                "imgh": 250,
                "imgw": 192,
                "isHD": true,
                "language": 6,
                "lic": false,
                "link": "rajdigiplus",
                "linkp": "a",
                "live": false,
                "name": "rajdigiplus",
                "tok": "widevine",
                "tokj": "hello",
                "trigger": false,
                "z": false,
                "zee": true
            },
            {
                "age": "Mozilla/5.0 (Windows NT 6.1; Win64; x64) AppleWebKit/537.36 (KHTML, like Gecko) Chrome/62.0.3202.94 Safari/537.36",
                "cardl": 300,
                "cardw": 350,
                "category": 8,
                "channel_id": 111,
                "drm": false,
                "hd": false,
                "icon": "http://www.rajtvnet.in/Raj_Net/raj_logos/Raj_msx_tamil.png",
                "imgh": 250,
                "imgw": 192,
                "isHD": true,
                "language": 6,
                "lic": false,
                "link": "rajmusix",
                "linkp": "a",
                "live": false,
                "name": "rajmusix",
                "tok": "widevine",
                "tokj": "hello",
                "trigger": false,
                "z": false,
                "zee": true
            },
            {
                "age": "Mozilla/5.0 (Windows NT 6.1; Win64; x64) AppleWebKit/537.36 (KHTML, like Gecko) Chrome/62.0.3202.94 Safari/537.36",
                "cardl": 300,
                "cardw": 350,
                "category": 8,
                "channel_id": 111,
                "drm": false,
                "hd": false,
                "icon": "http://www.rajtvnet.in/Raj_Net/raj_logos/Raj_news_tamil.png",
                "imgh": 250,
                "imgw": 192,
                "isHD": true,
                "language": 6,
                "lic": false,
                "link": "rajnews",
                "linkp": "a",
                "live": false,
                "name": "rajnews",
                "tok": "widevine",
                "tokj": "hello",
                "trigger": false,
                "z": false,
                "zee": true
            },
            {
                "age": "Mozilla/5.0 (Windows NT 6.1; Win64; x64) AppleWebKit/537.36 (KHTML, like Gecko) Chrome/62.0.3202.94 Safari/537.36",
                "cardl": 300,
                "cardw": 350,
                "category": 8,
                "channel_id": 111,
                "drm": false,
                "hd": false,
                "icon": "https://vignette.wikia.nocookie.net/logopedia/images/d/d7/Zeebangla_new.png",
                "imgh": 250,
                "imgw": 192,
                "isHD": true,
                "language": 6,
                "lic": false,
                "link": "zeebanglasd",
                "linkp": "a",
                "live": false,
                "name": "zeebanglasd",
                "tok": "widevine",
                "tokj": "hello",
                "trigger": false,
                "z": false,
                "zee": true
            },
            {
                "age": "Mozilla/5.0 (Windows NT 6.1; Win64; x64) AppleWebKit/537.36 (KHTML, like Gecko) Chrome/62.0.3202.94 Safari/537.36",
                "cardl": 300,
                "cardw": 350,
                "category": 8,
                "channel_id": 111,
                "drm": false,
                "hd": false,
                "icon": "https://tv.releasemyad.com/images/logo/20160109013653zee-bangla.png",
                "imgh": 250,
                "imgw": 192,
                "isHD": true,
                "language": 6,
                "lic": false,
                "link": "zeebanglahd",
                "linkp": "a",
                "live": false,
                "name": "zeebanglahd",
                "tok": "widevine",
                "tokj": "hello",
                "trigger": false,
                "z": false,
                "zee": true
            },
            {
                "age": "Mozilla/5.0 (Windows NT 6.1; Win64; x64) AppleWebKit/537.36 (KHTML, like Gecko) Chrome/62.0.3202.94 Safari/537.36",
                "cardl": 300,
                "cardw": 350,
                "category": 8,
                "channel_id": 111,
                "drm": false,
                "hd": false,
                "icon": "https://vignette.wikia.nocookie.net/logopedia/images/e/e2/24_Ghanta.png",
                "imgh": 250,
                "imgw": 192,
                "isHD": true,
                "language": 6,
                "lic": false,
                "link": "24ghanta",
                "linkp": "a",
                "live": false,
                "name": "24ghanta",
                "tok": "widevine",
                "tokj": "hello",
                "trigger": false,
                "z": false,
                "zee": true
            },
            {
                "age": "Mozilla/5.0 (Windows NT 6.1; Win64; x64) AppleWebKit/537.36 (KHTML, like Gecko) Chrome/62.0.3202.94 Safari/537.36",
                "cardl": 300,
                "cardw": 350,
                "category": 8,
                "channel_id": 111,
                "drm": false,
                "hd": false,
                "icon": "https://vignette.wikia.nocookie.net/logopedia/images/1/11/Zee_Telugu_HD.jpg",
                "imgh": 250,
                "imgw": 192,
                "isHD": true,
                "language": 6,
                "lic": false,
                "link": "zeetelegusd",
                "linkp": "a",
                "live": false,
                "name": "zeetelegusd",
                "tok": "widevine",
                "tokj": "hello",
                "trigger": false,
                "z": false,
                "zee": true
            },
            {
                "age": "Mozilla/5.0 (Windows NT 6.1; Win64; x64) AppleWebKit/537.36 (KHTML, like Gecko) Chrome/62.0.3202.94 Safari/537.36",
                "cardl": 300,
                "cardw": 350,
                "category": 8,
                "channel_id": 111,
                "drm": false,
                "hd": false,
                "icon": "https://vignette.wikia.nocookie.net/logopedia/images/1/11/Zee_Telugu_HD.jpg",
                "imgh": 250,
                "imgw": 192,
                "isHD": true,
                "language": 6,
                "lic": false,
                "link": "zeeteleguhd",
                "linkp": "a",
                "live": false,
                "name": "zeeteleguhd",
                "tok": "widevine",
                "tokj": "hello",
                "trigger": false,
                "z": false,
                "zee": true
            },
            {
                "age": "Mozilla/5.0 (Windows NT 6.1; Win64; x64) AppleWebKit/537.36 (KHTML, like Gecko) Chrome/62.0.3202.94 Safari/537.36",
                "cardl": 300,
                "cardw": 350,
                "category": 8,
                "channel_id": 111,
                "drm": false,
                "hd": false,
                "icon": "https://www.miniscreen.info/pictures/2017/12/Zee-Cinemalu-HD-Channel-Logo-350x300.jpg",
                "imgh": 250,
                "imgw": 192,
                "isHD": true,
                "language": 6,
                "lic": false,
                "link": "zcinemalusd",
                "linkp": "a",
                "live": false,
                "name": "zcinemalusd",
                "tok": "widevine",
                "tokj": "hello",
                "trigger": false,
                "z": false,
                "zee": true
            },
            {
                "age": "Mozilla/5.0 (Windows NT 6.1; Win64; x64) AppleWebKit/537.36 (KHTML, like Gecko) Chrome/62.0.3202.94 Safari/537.36",
                "cardl": 300,
                "cardw": 350,
                "category": 8,
                "channel_id": 111,
                "drm": false,
                "hd": false,
                "icon": "https://upload.wikimedia.org/wikipedia/commons/thumb/f/f9/RAJ_NEWS_LOGO.png/220px-RAJ_NEWS_LOGO.png",
                "imgh": 250,
                "imgw": 192,
                "isHD": true,
                "language": 6,
                "lic": false,
                "link": "rajnewstel",
                "linkp": "a",
                "live": false,
                "name": "rajnewstelugu",
                "tok": "widevine",
                "tokj": "hello",
                "trigger": false,
                "z": false,
                "zee": true
            },
            {
                "age": "Mozilla/5.0 (Windows NT 6.1; Win64; x64) AppleWebKit/537.36 (KHTML, like Gecko) Chrome/62.0.3202.94 Safari/537.36",
                "cardl": 300,
                "cardw": 350,
                "category": 8,
                "channel_id": 111,
                "drm": false,
                "hd": false,
                "icon": "http://www.rajtvnet.in/Raj_Net/raj_logos/raj_telugu_msx.png",
                "imgh": 250,
                "imgw": 192,
                "isHD": true,
                "language": 6,
                "lic": false,
                "link": "rajmusixtel",
                "linkp": "a",
                "live": false,
                "name": "rajmusixtelugu",
                "tok": "widevine",
                "tokj": "hello",
                "trigger": false,
                "z": false,
                "zee": true
            },
            {
                "age": "Mozilla/5.0 (Windows NT 6.1; Win64; x64) AppleWebKit/537.36 (KHTML, like Gecko) Chrome/62.0.3202.94 Safari/537.36",
                "cardl": 300,
                "cardw": 350,
                "category": 8,
                "channel_id": 111,
                "drm": false,
                "hd": false,
                "icon": "https://vignette.wikia.nocookie.net/logopedia/images/4/42/Zee_Marathi_HD_Logo.jpg",
                "imgh": 250,
                "imgw": 192,
                "isHD": true,
                "language": 6,
                "lic": false,
                "link": "zmarathisd",
                "linkp": "a",
                "live": false,
                "name": "zmarathisd",
                "tok": "widevine",
                "tokj": "hello",
                "trigger": false,
                "z": false,
                "zee": true
            },
            {
                "age": "Mozilla/5.0 (Windows NT 6.1; Win64; x64) AppleWebKit/537.36 (KHTML, like Gecko) Chrome/62.0.3202.94 Safari/537.36",
                "cardl": 300,
                "cardw": 350,
                "category": 8,
                "channel_id": 111,
                "drm": false,
                "hd": false,
                "icon": "https://vignette.wikia.nocookie.net/logopedia/images/4/42/Zee_Marathi_HD_Logo.jpg",
                "imgh": 250,
                "imgw": 192,
                "isHD": true,
                "language": 6,
                "lic": false,
                "link": "zmarathihd",
                "linkp": "a",
                "live": false,
                "name": "zmarathihd",
                "tok": "widevine",
                "tokj": "hello",
                "trigger": false,
                "z": false,
                "zee": true
            },
            {
                "age": "Mozilla/5.0 (Windows NT 6.1; Win64; x64) AppleWebKit/537.36 (KHTML, like Gecko) Chrome/62.0.3202.94 Safari/537.36",
                "cardl": 300,
                "cardw": 350,
                "category": 8,
                "channel_id": 111,
                "drm": false,
                "hd": false,
                "icon": "https://vignette.wikia.nocookie.net/logopedia/images/1/11/Zee-Yuva-Logo.jpg",
                "imgh": 250,
                "imgw": 192,
                "isHD": true,
                "language": 6,
                "lic": false,
                "link": "zyuva",
                "linkp": "a",
                "live": false,
                "name": "zyuva",
                "tok": "widevine",
                "tokj": "hello",
                "trigger": false,
                "z": false,
                "zee": true
            },
            {
                "age": "Mozilla/5.0 (Windows NT 6.1; Win64; x64) AppleWebKit/537.36 (KHTML, like Gecko) Chrome/62.0.3202.94 Safari/537.36",
                "cardl": 300,
                "cardw": 350,
                "category": 8,
                "channel_id": 111,
                "drm": false,
                "hd": false,
                "icon": "https://d2po7v53a8yrck.cloudfront.net/static/2/Open/400x300_1845/Source/85335/zeetalkies.png",
                "imgh": 250,
                "imgw": 192,
                "isHD": true,
                "language": 6,
                "lic": false,
                "link": "zeetalkies",
                "linkp": "a",
                "live": false,
                "name": "zeetalkies",
                "tok": "widevine",
                "tokj": "hello",
                "trigger": false,
                "z": false,
                "zee": true
            },
            {
                "age": "Mozilla/5.0 (Windows NT 6.1; Win64; x64) AppleWebKit/537.36 (KHTML, like Gecko) Chrome/62.0.3202.94 Safari/537.36",
                "cardl": 300,
                "cardw": 350,
                "category": 8,
                "channel_id": 111,
                "drm": false,
                "hd": false,
                "icon": "https://d2po7v53a8yrck.cloudfront.net/static/2/Open/400x300_1845/Source/85335/zeetalkies.png",
                "imgh": 250,
                "imgw": 192,
                "isHD": true,
                "language": 6,
                "lic": false,
                "link": "ztalkieshd",
                "linkp": "a",
                "live": false,
                "name": "ztalkieshd",
                "tok": "widevine",
                "tokj": "hello",
                "trigger": false,
                "z": false,
                "zee": true
            },
            {
                "age": "Mozilla/5.0 (Windows NT 6.1; Win64; x64) AppleWebKit/537.36 (KHTML, like Gecko) Chrome/62.0.3202.94 Safari/537.36",
                "cardl": 300,
                "cardw": 350,
                "category": 8,
                "channel_id": 111,
                "drm": false,
                "hd": false,
                "icon": "https://vignette.wikia.nocookie.net/logopedia/images/5/5d/Zee_24_Taas.png",
                "imgh": 250,
                "imgw": 192,
                "isHD": true,
                "language": 6,
                "lic": false,
                "link": "24taas",
                "linkp": "a",
                "live": false,
                "name": "24taas",
                "tok": "widevine",
                "tokj": "hello",
                "trigger": false,
                "z": false,
                "zee": true
            },
            {
                "age": "Mozilla/5.0 (Windows NT 6.1; Win64; x64) AppleWebKit/537.36 (KHTML, like Gecko) Chrome/62.0.3202.94 Safari/537.36",
                "cardl": 300,
                "cardw": 350,
                "category": 8,
                "channel_id": 111,
                "drm": false,
                "hd": false,
                "icon": "https://vignette.wikia.nocookie.net/logopedia/images/7/78/Living_Foodz_HD.jpg",
                "imgh": 250,
                "imgw": 192,
                "isHD": true,
                "language": 6,
                "lic": false,
                "link": "livingfoodzhd",
                "linkp": "a",
                "live": false,
                "name": "livingfoodzhd",
                "tok": "widevine",
                "tokj": "hello",
                "trigger": false,
                "z": false,
                "zee": true
            },
            {
                "age": "Mozilla/5.0 (Windows NT 6.1; Win64; x64) AppleWebKit/537.36 (KHTML, like Gecko) Chrome/62.0.3202.94 Safari/537.36",
                "cardl": 300,
                "cardw": 350,
                "category": 8,
                "channel_id": 111,
                "drm": false,
                "hd": false,
                "icon": "https://pbs.twimg.com/profile_images/1024592359344889856/vZ-jcPs__400x400.jpg",
                "imgh": 250,
                "imgw": 192,
                "isHD": true,
                "language": 6,
                "lic": false,
                "link": "flowerstv",
                "linkp": "a",
                "live": false,
                "name": "flowerstv",
                "tok": "widevine",
                "tokj": "hello",
                "trigger": false,
                "z": false,
                "zee": true
            },
            {
                "age": "Mozilla/5.0 (Windows NT 6.1; Win64; x64) AppleWebKit/537.36 (KHTML, like Gecko) Chrome/62.0.3202.94 Safari/537.36",
                "cardl": 300,
                "cardw": 350,
                "category": 8,
                "channel_id": 111,
                "drm": false,
                "hd": false,
                "icon": "https://pbs.twimg.com/profile_images/1052452463826087936/fhQ3dprA_400x400.jpg",
                "imgh": 250,
                "imgw": 192,
                "isHD": true,
                "language": 6,
                "lic": false,
                "link": "livingfoodzhd",
                "linkp": "a",
                "live": false,
                "name": "zee keralam",
                "tok": "widevine",
                "tokj": "hello",
                "trigger": false,
                "z": false,
                "zee": true
            },
            {
                "age": "Mozilla/5.0 (Windows NT 6.1; Win64; x64) AppleWebKit/537.36 (KHTML, like Gecko) Chrome/62.0.3202.94 Safari/537.36",
                "cardl": 300,
                "cardw": 350,
                "category": 8,
                "channel_id": 111,
                "drm": false,
                "hd": false,
                "icon": "http://www.rajtvnet.in/Raj_Net/Bottom_Scroller_Logo/Malayalam_raj_news.png",
                "imgh": 250,
                "imgw": 192,
                "isHD": true,
                "language": 6,
                "lic": false,
                "link": "rajnewsmal",
                "linkp": "a",
                "live": false,
                "name": "rajnewsmalyalam",
                "tok": "widevine",
                "tokj": "hello",
                "trigger": false,
                "z": false,
                "zee": true
            },
            {
                "age": "Mozilla/5.0 (Windows NT 6.1; Win64; x64) AppleWebKit/537.36 (KHTML, like Gecko) Chrome/62.0.3202.94 Safari/537.36",
                "cardl": 300,
                "cardw": 350,
                "category": 8,
                "channel_id": 111,
                "drm": false,
                "hd": false,
                "icon": "https://logoeps.com/wp-content/uploads/2013/06/zee-tv-vector-logo.png",
                "imgh": 250,
                "imgw": 192,
                "isHD": true,
                "language": 6,
                "lic": false,
                "link": "rajmusixmal",
                "linkp": "a",
                "live": false,
                "name": "rajmusixmal",
                "tok": "widevine",
                "tokj": "hello",
                "trigger": false,
                "z": false,
                "zee": true
            },
            {
                "age": "Mozilla/5.0 (Windows NT 6.1; Win64; x64) AppleWebKit/537.36 (KHTML, like Gecko) Chrome/62.0.3202.94 Safari/537.36",
                "cardl": 300,
                "cardw": 350,
                "category": 8,
                "channel_id": 111,
                "drm": false,
                "hd": false,
                "icon": "https://logoeps.com/wp-content/uploads/2013/06/zee-tv-vector-logo.png",
                "imgh": 250,
                "imgw": 192,
                "isHD": true,
                "language": 6,
                "lic": false,
                "link": "zkannada",
                "linkp": "a",
                "live": false,
                "name": "zkannada",
                "tok": "widevine",
                "tokj": "hello",
                "trigger": false,
                "z": false,
                "zee": true
            },
            {
                "age": "Mozilla/5.0 (Windows NT 6.1; Win64; x64) AppleWebKit/537.36 (KHTML, like Gecko) Chrome/62.0.3202.94 Safari/537.36",
                "cardl": 300,
                "cardw": 350,
                "category": 8,
                "channel_id": 111,
                "drm": false,
                "hd": false,
                "icon": "https://logoeps.com/wp-content/uploads/2013/06/zee-tv-vector-logo.png",
                "imgh": 250,
                "imgw": 192,
                "isHD": true,
                "language": 6,
                "lic": false,
                "link": "rajmusic",
                "linkp": "a",
                "live": false,
                "name": "rajmusic",
                "tok": "widevine",
                "tokj": "hello",
                "trigger": false,
                "z": false,
                "zee": true
            },
            {
                "age": "Mozilla/5.0 (Windows NT 6.1; Win64; x64) AppleWebKit/537.36 (KHTML, like Gecko) Chrome/62.0.3202.94 Safari/537.36",
                "cardl": 300,
                "cardw": 350,
                "category": 8,
                "channel_id": 111,
                "drm": false,
                "hd": false,
                "icon": "https://logoeps.com/wp-content/uploads/2013/06/zee-tv-vector-logo.png",
                "imgh": 250,
                "imgw": 192,
                "isHD": true,
                "language": 6,
                "lic": false,
                "link": "chardiktmtv",
                "linkp": "a",
                "live": false,
                "name": "chardiktmtv",
                "tok": "widevine",
                "tokj": "hello",
                "trigger": false,
                "z": false,
                "zee": true
            },
            {
                "age": "Mozilla/5.0 (Windows NT 6.1; Win64; x64) AppleWebKit/537.36 (KHTML, like Gecko) Chrome/62.0.3202.94 Safari/537.36",
                "cardl": 300,
                "cardw": 350,
                "category": 8,
                "channel_id": 111,
                "drm": false,
                "hd": false,
                "icon": "https://logoeps.com/wp-content/uploads/2013/06/zee-tv-vector-logo.png",
                "imgh": 250,
                "imgw": 192,
                "isHD": true,
                "language": 6,
                "lic": false,
                "link": "kalak",
                "linkp": "a",
                "live": false,
                "name": "kalak",
                "tok": "widevine",
                "tokj": "hello",
                "trigger": false,
                "z": false,
                "zee": true
            },
            {
                "age": "Mozilla/5.0 (Windows NT 6.1; Win64; x64) AppleWebKit/537.36 (KHTML, like Gecko) Chrome/62.0.3202.94 Safari/537.36",
                "cardl": 300,
                "cardw": 350,
                "category": 8,
                "channel_id": 111,
                "drm": false,
                "hd": false,
                "icon": "https://logoeps.com/wp-content/uploads/2013/06/zee-tv-vector-logo.png",
                "imgh": 250,
                "imgw": 192,
                "isHD": true,
                "language": 6,
                "lic": false,
                "link": "kalinga",
                "linkp": "a",
                "live": false,
                "name": "kalinga",
                "tok": "widevine",
                "tokj": "hello",
                "trigger": false,
                "z": false,
                "zee": true
            },
            {
                "age": "Mozilla/5.0 (Windows NT 6.1; Win64; x64) AppleWebKit/537.36 (KHTML, like Gecko) Chrome/62.0.3202.94 Safari/537.36",
                "cardl": 300,
                "cardw": 350,
                "category": 8,
                "channel_id": 111,
                "drm": false,
                "hd": false,
                "icon": "https://logoeps.com/wp-content/uploads/2013/06/zee-tv-vector-logo.png",
                "imgh": 250,
                "imgw": 192,
                "isHD": true,
                "language": 6,
                "lic": false,
                "link": "zing",
                "linkp": "a",
                "live": false,
                "name": "zing",
                "tok": "widevine",
                "tokj": "hello",
                "trigger": false,
                "z": false,
                "zee": true
            },
            {
                "age": "Mozilla/5.0 (Windows NT 6.1; Win64; x64) AppleWebKit/537.36 (KHTML, like Gecko) Chrome/62.0.3202.94 Safari/537.36",
                "cardl": 300,
                "cardw": 350,
                "category": 8,
                "channel_id": 111,
                "drm": false,
                "hd": false,
                "icon": "https://logoeps.com/wp-content/uploads/2013/06/zee-tv-vector-logo.png",
                "imgh": 250,
                "imgw": 192,
                "isHD": true,
                "language": 6,
                "lic": false,
                "link": "zingusa",
                "linkp": "a",
                "live": false,
                "name": "zingusa",
                "tok": "widevine",
                "tokj": "hello",
                "trigger": false,
                "z": false,
                "zee": true
            },
            {
                "age": "Mozilla/5.0 (Windows NT 6.1; Win64; x64) AppleWebKit/537.36 (KHTML, like Gecko) Chrome/62.0.3202.94 Safari/537.36",
                "cardl": 300,
                "cardw": 350,
                "category": 8,
                "channel_id": 111,
                "drm": false,
                "hd": false,
                "icon": "https://logoeps.com/wp-content/uploads/2013/06/zee-tv-vector-logo.png",
                "imgh": 250,
                "imgw": 192,
                "isHD": true,
                "language": 6,
                "lic": false,
                "link": "livingfoodz",
                "linkp": "a",
                "live": false,
                "name": "livingfoodz",
                "tok": "widevine",
                "tokj": "hello",
                "trigger": false,
                "z": false,
                "zee": true
            },
            {
                "age": "Mozilla/5.0 (Windows NT 6.1; Win64; x64) AppleWebKit/537.36 (KHTML, like Gecko) Chrome/62.0.3202.94 Safari/537.36",
                "cardl": 300,
                "cardw": 350,
                "category": 8,
                "channel_id": 111,
                "drm": false,
                "hd": false,
                "icon": "https://logoeps.com/wp-content/uploads/2013/06/zee-tv-vector-logo.png",
                "imgh": 250,
                "imgw": 192,
                "isHD": true,
                "language": 6,
                "lic": false,
                "link": "wion",
                "linkp": "a",
                "live": false,
                "name": "wion",
                "tok": "widevine",
                "tokj": "hello",
                "trigger": false,
                "z": false,
                "zee": true
            },
            {
                "age": "Mozilla/5.0 (Windows NT 6.1; Win64; x64) AppleWebKit/537.36 (KHTML, like Gecko) Chrome/62.0.3202.94 Safari/537.36",
                "cardl": 300,
                "cardw": 350,
                "category": 8,
                "channel_id": 111,
                "drm": false,
                "hd": false,
                "icon": "https://logoeps.com/wp-content/uploads/2013/06/zee-tv-vector-logo.png",
                "imgh": 250,
                "imgw": 192,
                "isHD": true,
                "language": 6,
                "lic": false,
                "link": "republic",
                "linkp": "a",
                "live": false,
                "name": "republic",
                "tok": "widevine",
                "tokj": "hello",
                "trigger": false,
                "z": false,
                "zee": true
            },
            {
                "age": "Mozilla/5.0 (Windows NT 6.1; Win64; x64) AppleWebKit/537.36 (KHTML, like Gecko) Chrome/62.0.3202.94 Safari/537.36",
                "cardl": 300,
                "cardw": 350,
                "category": 8,
                "channel_id": 111,
                "drm": false,
                "hd": false,
                "icon": "https://logoeps.com/wp-content/uploads/2013/06/zee-tv-vector-logo.png",
                "imgh": 250,
                "imgw": 192,
                "isHD": true,
                "language": 6,
                "lic": false,
                "link": "9xtashan",
                "linkp": "a",
                "live": false,
                "name": "9xtashan",
                "tok": "widevine",
                "tokj": "hello",
                "trigger": false,
                "z": false,
                "zee": true
            },
            {
                "age": "Mozilla/5.0 (Windows NT 6.1; Win64; x64) AppleWebKit/537.36 (KHTML, like Gecko) Chrome/62.0.3202.94 Safari/537.36",
                "cardl": 300,
                "cardw": 350,
                "category": 8,
                "channel_id": 111,
                "drm": false,
                "hd": false,
                "icon": "https://logoeps.com/wp-content/uploads/2013/06/zee-tv-vector-logo.png",
                "imgh": 250,
                "imgw": 192,
                "isHD": true,
                "language": 6,
                "lic": false,
                "link": "bloomtv",
                "linkp": "a",
                "live": false,
                "name": "bloomtv",
                "tok": "widevine",
                "tokj": "hello",
                "trigger": false,
                "z": false,
                "zee": true
            },
            {
                "age": "Mozilla/5.0 (Windows NT 6.1; Win64; x64) AppleWebKit/537.36 (KHTML, like Gecko) Chrome/62.0.3202.94 Safari/537.36",
                "cardl": 300,
                "cardw": 350,
                "category": 8,
                "channel_id": 111,
                "drm": false,
                "hd": false,
                "icon": "https://logoeps.com/wp-content/uploads/2013/06/zee-tv-vector-logo.png",
                "imgh": 250,
                "imgw": 192,
                "isHD": true,
                "language": 6,
                "lic": false,
                "link": "bbcworldnews",
                "linkp": "a",
                "live": false,
                "name": "bbcworldnews",
                "tok": "widevine",
                "tokj": "hello",
                "trigger": false,
                "z": false,
                "zee": true
            },
            {
                "age": "Mozilla/5.0 (Windows NT 6.1; Win64; x64) AppleWebKit/537.36 (KHTML, like Gecko) Chrome/62.0.3202.94 Safari/537.36",
                "cardl": 300,
                "cardw": 350,
                "category": 8,
                "channel_id": 111,
                "drm": false,
                "hd": false,
                "icon": "https://logoeps.com/wp-content/uploads/2013/06/zee-tv-vector-logo.png",
                "imgh": 250,
                "imgw": 192,
                "isHD": true,
                "language": 6,
                "lic": false,
                "link": "zeenews",
                "linkp": "a",
                "live": false,
                "name": "zeenews",
                "tok": "widevine",
                "tokj": "hello",
                "trigger": false,
                "z": false,
                "zee": true
            },
            {
                "age": "Mozilla/5.0 (Windows NT 6.1; Win64; x64) AppleWebKit/537.36 (KHTML, like Gecko) Chrome/62.0.3202.94 Safari/537.36",
                "cardl": 300,
                "cardw": 350,
                "category": 8,
                "channel_id": 111,
                "drm": false,
                "hd": false,
                "icon": "https://logoeps.com/wp-content/uploads/2013/06/zee-tv-vector-logo.png",
                "imgh": 250,
                "imgw": 192,
                "isHD": true,
                "language": 6,
                "lic": false,
                "link": "zeebusiness",
                "linkp": "a",
                "live": false,
                "name": "zeebusiness",
                "tok": "widevine",
                "tokj": "hello",
                "trigger": false,
                "z": false,
                "zee": true
            },
            {
                "age": "Mozilla/5.0 (Windows NT 6.1; Win64; x64) AppleWebKit/537.36 (KHTML, like Gecko) Chrome/62.0.3202.94 Safari/537.36",
                "cardl": 300,
                "cardw": 350,
                "category": 8,
                "channel_id": 111,
                "drm": false,
                "hd": false,
                "icon": "https://logoeps.com/wp-content/uploads/2013/06/zee-tv-vector-logo.png",
                "imgh": 250,
                "imgw": 192,
                "isHD": true,
                "language": 6,
                "lic": false,
                "link": "hindustan",
                "linkp": "a",
                "live": false,
                "name": "hindustan",
                "tok": "widevine",
                "tokj": "hello",
                "trigger": false,
                "z": false,
                "zee": true
            },
            {
                "age": "Mozilla/5.0 (Windows NT 6.1; Win64; x64) AppleWebKit/537.36 (KHTML, like Gecko) Chrome/62.0.3202.94 Safari/537.36",
                "cardl": 300,
                "cardw": 350,
                "category": 8,
                "channel_id": 111,
                "drm": false,
                "hd": false,
                "icon": "https://logoeps.com/wp-content/uploads/2013/06/zee-tv-vector-logo.png",
                "imgh": 250,
                "imgw": 192,
                "isHD": true,
                "language": 6,
                "lic": false,
                "link": "rajasthan",
                "linkp": "a",
                "live": false,
                "name": "rajasthan",
                "tok": "widevine",
                "tokj": "hello",
                "trigger": false,
                "z": false,
                "zee": true
            },
            {
                "age": "Mozilla/5.0 (Windows NT 6.1; Win64; x64) AppleWebKit/537.36 (KHTML, like Gecko) Chrome/62.0.3202.94 Safari/537.36",
                "cardl": 300,
                "cardw": 350,
                "category": 8,
                "channel_id": 111,
                "drm": false,
                "hd": false,
                "icon": "https://logoeps.com/wp-content/uploads/2013/06/zee-tv-vector-logo.png",
                "imgh": 250,
                "imgw": 192,
                "isHD": true,
                "language": 6,
                "lic": false,
                "link": "newsmpcg",
                "linkp": "a",
                "live": false,
                "name": "newsmpcg",
                "tok": "widevine",
                "tokj": "hello",
                "trigger": false,
                "z": false,
                "zee": true
            },
            {
                "age": "Mozilla/5.0 (Windows NT 6.1; Win64; x64) AppleWebKit/537.36 (KHTML, like Gecko) Chrome/62.0.3202.94 Safari/537.36",
                "cardl": 300,
                "cardw": 350,
                "category": 8,
                "channel_id": 111,
                "drm": false,
                "hd": false,
                "icon": "https://logoeps.com/wp-content/uploads/2013/06/zee-tv-vector-logo.png",
                "imgh": 250,
                "imgw": 192,
                "isHD": true,
                "language": 6,
                "lic": false,
                "link": "biharjharkh",
                "linkp": "a",
                "live": false,
                "name": "biharjharkh",
                "tok": "widevine",
                "tokj": "hello",
                "trigger": false,
                "z": false,
                "zee": true
            },
            {
                "age": "Mozilla/5.0 (Windows NT 6.1; Win64; x64) AppleWebKit/537.36 (KHTML, like Gecko) Chrome/62.0.3202.94 Safari/537.36",
                "cardl": 300,
                "cardw": 350,
                "category": 8,
                "channel_id": 111,
                "drm": false,
                "hd": false,
                "icon": "https://logoeps.com/wp-content/uploads/2013/06/zee-tv-vector-logo.png",
                "imgh": 250,
                "imgw": 192,
                "isHD": true,
                "language": 6,
                "lic": false,
                "link": "punjabi",
                "linkp": "a",
                "live": false,
                "name": "punjabi",
                "tok": "widevine",
                "tokj": "hello",
                "trigger": false,
                "z": false,
                "zee": true
            },
            {
                "age": "Mozilla/5.0 (Windows NT 6.1; Win64; x64) AppleWebKit/537.36 (KHTML, like Gecko) Chrome/62.0.3202.94 Safari/537.36",
                "cardl": 300,
                "cardw": 350,
                "category": 8,
                "channel_id": 111,
                "drm": false,
                "hd": false,
                "icon": "https://logoeps.com/wp-content/uploads/2013/06/zee-tv-vector-logo.png",
                "imgh": 250,
                "imgw": 192,
                "isHD": true,
                "language": 6,
                "lic": false,
                "link": "sarthaktv",
                "linkp": "a",
                "live": false,
                "name": "sarthaktv",
                "tok": "widevine",
                "tokj": "hello",
                "trigger": false,
                "z": false,
                "zee": true
            },
            {
                "age": "Mozilla/5.0 (Windows NT 6.1; Win64; x64) AppleWebKit/537.36 (KHTML, like Gecko) Chrome/62.0.3202.94 Safari/537.36",
                "cardl": 300,
                "cardw": 350,
                "category": 8,
                "channel_id": 111,
                "drm": false,
                "hd": false,
                "icon": "https://logoeps.com/wp-content/uploads/2013/06/zee-tv-vector-logo.png",
                "imgh": 250,
                "imgw": 192,
                "isHD": true,
                "language": 6,
                "lic": false,
                "link": "zeecafesd",
                "linkp": "a",
                "live": false,
                "name": "zeecafesd",
                "tok": "widevine",
                "tokj": "hello",
                "trigger": false,
                "z": false,
                "zee": true
            },
            {
                "age": "Mozilla/5.0 (Windows NT 6.1; Win64; x64) AppleWebKit/537.36 (KHTML, like Gecko) Chrome/62.0.3202.94 Safari/537.36",
                "cardl": 300,
                "cardw": 350,
                "category": 8,
                "channel_id": 111,
                "drm": false,
                "hd": false,
                "icon": "https://logoeps.com/wp-content/uploads/2013/06/zee-tv-vector-logo.png",
                "imgh": 250,
                "imgw": 192,
                "isHD": true,
                "language": 6,
                "lic": false,
                "link": "zeecafehd",
                "linkp": "a",
                "live": false,
                "name": "zeecafehd",
                "tok": "widevine",
                "tokj": "hello",
                "trigger": false,
                "z": false,
                "zee": true
            },
            {
                "age": "Mozilla/5.0 (Windows NT 6.1; Win64; x64) AppleWebKit/537.36 (KHTML, like Gecko) Chrome/62.0.3202.94 Safari/537.36",
                "cardl": 300,
                "cardw": 350,
                "category": 8,
                "channel_id": 111,
                "drm": false,
                "hd": false,
                "icon": "https://logoeps.com/wp-content/uploads/2013/06/zee-tv-vector-logo.png",
                "imgh": 250,
                "imgw": 192,
                "isHD": true,
                "language": 6,
                "lic": false,
                "link": "zeesalaam",
                "linkp": "a",
                "live": false,
                "name": "zeesalaam",
                "tok": "widevine",
                "tokj": "hello",
                "trigger": false,
                "z": false,
                "zee": true
            },
            {
                "age": "Mozilla/5.0 (Windows NT 6.1; Win64; x64) AppleWebKit/537.36 (KHTML, like Gecko) Chrome/62.0.3202.94 Safari/537.36",
                "cardl": 300,
                "cardw": 350,
                "category": 8,
                "channel_id": 111,
                "drm": false,
                "hd": false,
                "icon": "https://logoeps.com/wp-content/uploads/2013/06/zee-tv-vector-logo.png",
                "imgh": 250,
                "imgw": 192,
                "isHD": true,
                "language": 6,
                "lic": false,
                "link": "cartoonnet",
                "linkp": "a",
                "live": false,
                "name": "cartoonnet",
                "tok": "widevine",
                "tokj": "hello",
                "trigger": false,
                "z": false,
                "zee": true
            },
            {
                "age": "Mozilla/5.0 (Windows NT 6.1; Win64; x64) AppleWebKit/537.36 (KHTML, like Gecko) Chrome/62.0.3202.94 Safari/537.36",
                "cardl": 300,
                "cardw": 350,
                "category": 8,
                "channel_id": 111,
                "drm": false,
                "hd": false,
                "icon": "https://logoeps.com/wp-content/uploads/2013/06/zee-tv-vector-logo.png",
                "imgh": 250,
                "imgw": 192,
                "isHD": true,
                "language": 6,
                "lic": false,
                "link": "pogo",
                "linkp": "a",
                "live": false,
                "name": "pogo",
                "tok": "widevine",
                "tokj": "hello",
                "trigger": false,
                "z": false,
                "zee": true
            },
            {
                "age": "Mozilla/5.0 (Windows NT 6.1; Win64; x64) AppleWebKit/537.36 (KHTML, like Gecko) Chrome/62.0.3202.94 Safari/537.36",
                "cardl": 300,
                "cardw": 350,
                "category": 8,
                "channel_id": 111,
                "drm": false,
                "hd": false,
                "icon": "https://logoeps.com/wp-content/uploads/2013/06/zee-tv-vector-logo.png",
                "imgh": 250,
                "imgw": 192,
                "isHD": true,
                "language": 6,
                "lic": false,
                "link": "cnnisa",
                "linkp": "a",
                "live": false,
                "name": "cnnisa",
                "tok": "widevine",
                "tokj": "hello",
                "trigger": false,
                "z": false,
                "zee": true
            },
            {
                "age": "Mozilla/5.0 (Windows NT 6.1; Win64; x64) AppleWebKit/537.36 (KHTML, like Gecko) Chrome/62.0.3202.94 Safari/537.36",
                "cardl": 300,
                "cardw": 350,
                "category": 8,
                "channel_id": 111,
                "drm": false,
                "hd": false,
                "icon": "https://logoeps.com/wp-content/uploads/2013/06/zee-tv-vector-logo.png",
                "imgh": 250,
                "imgw": 192,
                "isHD": true,
                "language": 6,
                "lic": false,
                "link": "divyatv",
                "linkp": "a",
                "live": false,
                "name": "divyatv",
                "tok": "widevine",
                "tokj": "hello",
                "trigger": false,
                "z": false,
                "zee": true
            },
            {
                "age": "Mozilla/5.0 (Windows NT 6.1; Win64; x64) AppleWebKit/537.36 (KHTML, like Gecko) Chrome/62.0.3202.94 Safari/537.36",
                "cardl": 300,
                "cardw": 350,
                "category": 8,
                "channel_id": 111,
                "drm": false,
                "hd": false,
                "icon": "https://logoeps.com/wp-content/uploads/2013/06/zee-tv-vector-logo.png",
                "imgh": 250,
                "imgw": 192,
                "isHD": true,
                "language": 6,
                "lic": false,
                "link": "sanskartv",
                "linkp": "a",
                "live": false,
                "name": "sanskartv",
                "tok": "widevine",
                "tokj": "hello",
                "trigger": false,
                "z": false,
                "zee": true
            },
            {
                "age": "Mozilla/5.0 (Windows NT 6.1; Win64; x64) AppleWebKit/537.36 (KHTML, like Gecko) Chrome/62.0.3202.94 Safari/537.36",
                "cardl": 300,
                "cardw": 350,
                "category": 8,
                "channel_id": 111,
                "drm": false,
                "hd": false,
                "icon": "https://logoeps.com/wp-content/uploads/2013/06/zee-tv-vector-logo.png",
                "imgh": 250,
                "imgw": 192,
                "isHD": true,
                "language": 6,
                "lic": false,
                "link": "satsangtv",
                "linkp": "a",
                "live": false,
                "name": "satsangtv",
                "tok": "widevine",
                "tokj": "hello",
                "trigger": false,
                "z": false,
                "zee": true
            },
            {
                "age": "Mozilla/5.0 (Windows NT 6.1; Win64; x64) AppleWebKit/537.36 (KHTML, like Gecko) Chrome/62.0.3202.94 Safari/537.36",
                "cardl": 300,
                "cardw": 350,
                "category": 8,
                "channel_id": 111,
                "drm": false,
                "hd": false,
                "icon": "https://logoeps.com/wp-content/uploads/2013/06/zee-tv-vector-logo.png",
                "imgh": 250,
                "imgw": 192,
                "isHD": true,
                "language": 6,
                "lic": false,
                "link": "vissatv",
                "linkp": "a",
                "live": false,
                "name": "vissatv",
                "tok": "widevine",
                "tokj": "hello",
                "trigger": false,
                "z": false,
                "zee": true
            },
            {
                "age": "Mozilla/5.0 (Windows NT 6.1; Win64; x64) AppleWebKit/537.36 (KHTML, like Gecko) Chrome/62.0.3202.94 Safari/537.36",
                "cardl": 300,
                "cardw": 350,
                "category": 8,
                "channel_id": 111,
                "drm": false,
                "hd": false,
                "icon": "https://logoeps.com/wp-content/uploads/2013/06/zee-tv-vector-logo.png",
                "imgh": 250,
                "imgw": 192,
                "isHD": true,
                "language": 6,
                "lic": false,
                "link": "action",
                "linkp": "a",
                "live": false,
                "name": "action",
                "tok": "widevine",
                "tokj": "hello",
                "trigger": false,
                "z": false,
                "zee": true
            },
            {
                "age": "Mozilla/5.0 (Windows NT 6.1; Win64; x64) AppleWebKit/537.36 (KHTML, like Gecko) Chrome/62.0.3202.94 Safari/537.36",
                "cardl": 300,
                "cardw": 350,
                "category": 8,
                "channel_id": 111,
                "drm": false,
                "hd": false,
                "icon": "https://logoeps.com/wp-content/uploads/2013/06/zee-tv-vector-logo.png",
                "imgh": 250,
                "imgw": 192,
                "isHD": true,
                "language": 6,
                "lic": false,
                "link": "zeeanmol",
                "linkp": "a",
                "live": false,
                "name": "zeeanmol",
                "tok": "widevine",
                "tokj": "hello",
                "trigger": false,
                "z": false,
                "zee": true
            },
            {
                "age": "Mozilla/5.0 (Windows NT 6.1; Win64; x64) AppleWebKit/537.36 (KHTML, like Gecko) Chrome/62.0.3202.94 Safari/537.36",
                "cardl": 300,
                "cardw": 350,
                "category": 8,
                "channel_id": 111,
                "drm": false,
                "hd": false,
                "icon": "https://logoeps.com/wp-content/uploads/2013/06/zee-tv-vector-logo.png",
                "imgh": 250,
                "imgw": 192,
                "isHD": true,
                "language": 6,
                "lic": false,
                "link": "zanmolcnm",
                "linkp": "a",
                "live": false,
                "name": "zanmolcnm",
                "tok": "widevine",
                "tokj": "hello",
                "trigger": false,
                "z": false,
                "zee": true
            },
            {
                "age": "Mozilla/5.0 (Windows NT 6.1; Win64; x64) AppleWebKit/537.36 (KHTML, like Gecko) Chrome/62.0.3202.94 Safari/537.36",
                "cardl": 300,
                "cardw": 350,
                "category": 8,
                "channel_id": 111,
                "drm": false,
                "hd": false,
                "icon": "https://logoeps.com/wp-content/uploads/2013/06/zee-tv-vector-logo.png",
                "imgh": 250,
                "imgw": 192,
                "isHD": true,
                "language": 6,
                "lic": false,
                "link": "classic",
                "linkp": "a",
                "live": false,
                "name": "classic",
                "tok": "widevine",
                "tokj": "hello",
                "trigger": false,
                "z": false,
                "zee": true
            },
            {
                "age": "Mozilla/5.0 (Windows NT 6.1; Win64; x64) AppleWebKit/537.36 (KHTML, like Gecko) Chrome/62.0.3202.94 Safari/537.36",
                "cardl": 300,
                "cardw": 350,
                "category": 8,
                "channel_id": 111,
                "drm": false,
                "hd": false,
                "icon": "https://logoeps.com/wp-content/uploads/2013/06/zee-tv-vector-logo.png",
                "imgh": 250,
                "imgw": 192,
                "isHD": true,
                "language": 6,
                "lic": false,
                "link": "zcinemasd",
                "linkp": "a",
                "live": false,
                "name": "zcinemasd",
                "tok": "widevine",
                "tokj": "hello",
                "trigger": false,
                "z": false,
                "zee": true
            },
            {
                "age": "Mozilla/5.0 (Windows NT 6.1; Win64; x64) AppleWebKit/537.36 (KHTML, like Gecko) Chrome/62.0.3202.94 Safari/537.36",
                "cardl": 300,
                "cardw": 350,
                "category": 8,
                "channel_id": 111,
                "drm": false,
                "hd": false,
                "icon": "https://logoeps.com/wp-content/uploads/2013/06/zee-tv-vector-logo.png",
                "imgh": 250,
                "imgw": 192,
                "isHD": true,
                "language": 6,
                "lic": false,
                "link": "zcinemahd",
                "linkp": "a",
                "live": false,
                "name": "zcinemahd",
                "tok": "widevine",
                "tokj": "hello",
                "trigger": false,
                "z": false,
                "zee": true
            },
            {
                "age": "Mozilla/5.0 (Windows NT 6.1; Win64; x64) AppleWebKit/537.36 (KHTML, like Gecko) Chrome/62.0.3202.94 Safari/537.36",
                "cardl": 300,
                "cardw": 350,
                "category": 8,
                "channel_id": 111,
                "drm": false,
                "hd": false,
                "icon": "https://logoeps.com/wp-content/uploads/2013/06/zee-tv-vector-logo.png",
                "imgh": 250,
                "imgw": 192,
                "isHD": true,
                "language": 6,
                "lic": false,
                "link": "magic",
                "linkp": "a",
                "live": false,
                "name": "magic",
                "tok": "widevine",
                "tokj": "hello",
                "trigger": false,
                "z": false,
                "zee": true
            },
            {
                "age": "Mozilla/5.0 (Windows NT 6.1; Win64; x64) AppleWebKit/537.36 (KHTML, like Gecko) Chrome/62.0.3202.94 Safari/537.36",
                "cardl": 300,
                "cardw": 350,
                "category": 8,
                "channel_id": 111,
                "drm": false,
                "hd": false,
                "icon": "https://logoeps.com/wp-content/uploads/2013/06/zee-tv-vector-logo.png",
                "imgh": 250,
                "imgw": 192,
                "isHD": true,
                "language": 6,
                "lic": false,
                "link": "nungthai",
                "linkp": "a",
                "live": false,
                "name": "nungthai",
                "tok": "widevine",
                "tokj": "hello",
                "trigger": false,
                "z": false,
                "zee": true
            },
            {
                "age": "Mozilla/5.0 (Windows NT 6.1; Win64; x64) AppleWebKit/537.36 (KHTML, like Gecko) Chrome/62.0.3202.94 Safari/537.36",
                "cardl": 300,
                "cardw": 350,
                "category": 8,
                "channel_id": 111,
                "drm": false,
                "hd": false,
                "icon": "https://logoeps.com/wp-content/uploads/2013/06/zee-tv-vector-logo.png",
                "imgh": 250,
                "imgw": 192,
                "isHD": true,
                "language": 6,
                "lic": false,
                "link": "sine",
                "linkp": "a",
                "live": false,
                "name": "sine",
                "tok": "widevine",
                "tokj": "hello",
                "trigger": false,
                "z": false,
                "zee": true
            },
            {
                "age": "Mozilla/5.0 (Windows NT 6.1; Win64; x64) AppleWebKit/537.36 (KHTML, like Gecko) Chrome/62.0.3202.94 Safari/537.36",
                "cardl": 300,
                "cardw": 350,
                "category": 8,
                "channel_id": 111,
                "drm": false,
                "hd": false,
                "icon": "https://logoeps.com/wp-content/uploads/2013/06/zee-tv-vector-logo.png",
                "imgh": 250,
                "imgw": 192,
                "isHD": true,
                "language": 6,
                "lic": false,
                "link": "marathiusa",
                "linkp": "a",
                "live": false,
                "name": "marathiusa",
                "tok": "widevine",
                "tokj": "hello",
                "trigger": false,
                "z": false,
                "zee": true
            },
            {
                "age": "Mozilla/5.0 (Windows NT 6.1; Win64; x64) AppleWebKit/537.36 (KHTML, like Gecko) Chrome/62.0.3202.94 Safari/537.36",
                "cardl": 300,
                "cardw": 350,
                "category": 8,
                "channel_id": 111,
                "drm": false,
                "hd": false,
                "icon": "https://logoeps.com/wp-content/uploads/2013/06/zee-tv-vector-logo.png",
                "imgh": 250,
                "imgw": 192,
                "isHD": true,
                "language": 6,
                "lic": false,
                "link": "bioskopidn",
                "linkp": "a",
                "live": false,
                "name": "bioskopidn",
                "tok": "widevine",
                "tokj": "hello",
                "trigger": false,
                "z": false,
                "zee": true
            },
            {
                "age": "Mozilla/5.0 (Windows NT 6.1; Win64; x64) AppleWebKit/537.36 (KHTML, like Gecko) Chrome/62.0.3202.94 Safari/537.36",
                "cardl": 300,
                "cardw": 350,
                "category": 8,
                "channel_id": 111,
                "drm": false,
                "hd": false,
                "icon": "https://logoeps.com/wp-content/uploads/2013/06/zee-tv-vector-logo.png",
                "imgh": 250,
                "imgw": 192,
                "isHD": true,
                "language": 6,
                "lic": false,
                "link": "cinemauk",
                "linkp": "a",
                "live": false,
                "name": "cinemauk",
                "tok": "widevine",
                "tokj": "hello",
                "trigger": false,
                "z": false,
                "zee": true
            },
            {
                "age": "Mozilla/5.0 (Windows NT 6.1; Win64; x64) AppleWebKit/537.36 (KHTML, like Gecko) Chrome/62.0.3202.94 Safari/537.36",
                "cardl": 300,
                "cardw": 350,
                "category": 8,
                "channel_id": 111,
                "drm": false,
                "hd": false,
                "icon": "https://logoeps.com/wp-content/uploads/2013/06/zee-tv-vector-logo.png",
                "imgh": 250,
                "imgw": 192,
                "isHD": true,
                "language": 6,
                "lic": false,
                "link": "cinemausa",
                "linkp": "a",
                "live": false,
                "name": "cinemausa",
                "tok": "widevine",
                "tokj": "hello",
                "trigger": false,
                "z": false,
                "zee": true
            },
            {
                "age": "Mozilla/5.0 (Windows NT 6.1; Win64; x64) AppleWebKit/537.36 (KHTML, like Gecko) Chrome/62.0.3202.94 Safari/537.36",
                "cardl": 300,
                "cardw": 350,
                "category": 8,
                "channel_id": 111,
                "drm": false,
                "hd": false,
                "icon": "https://logoeps.com/wp-content/uploads/2013/06/zee-tv-vector-logo.png",
                "imgh": 250,
                "imgw": 192,
                "isHD": true,
                "language": 6,
                "lic": false,
                "link": "rajasthan",
                "linkp": "a",
                "live": false,
                "name": "rajasthan",
                "tok": "widevine",
                "tokj": "hello",
                "trigger": false,
                "z": false,
                "zee": true
            },
            {
                "age": "Mozilla/5.0 (Windows NT 6.1; Win64; x64) AppleWebKit/537.36 (KHTML, like Gecko) Chrome/62.0.3202.94 Safari/537.36",
                "cardl": 300,
                "cardw": 350,
                "category": 8,
                "channel_id": 111,
                "drm": false,
                "hd": false,
                "icon": "https://logoeps.com/wp-content/uploads/2013/06/zee-tv-vector-logo.png",
                "imgh": 250,
                "imgw": 192,
                "isHD": true,
                "language": 6,
                "lic": false,
                "link": "ddbangla",
                "linkp": "a",
                "live": false,
                "name": "ddbangla",
                "tok": "widevine",
                "tokj": "hello",
                "trigger": false,
                "z": false,
                "zee": true
            },
            {
                "age": "Mozilla/5.0 (Windows NT 6.1; Win64; x64) AppleWebKit/537.36 (KHTML, like Gecko) Chrome/62.0.3202.94 Safari/537.36",
                "cardl": 300,
                "cardw": 350,
                "category": 8,
                "channel_id": 111,
                "drm": false,
                "hd": false,
                "icon": "https://logoeps.com/wp-content/uploads/2013/06/zee-tv-vector-logo.png",
                "imgh": 250,
                "imgw": 192,
                "isHD": true,
                "language": 6,
                "lic": false,
                "link": "ddbharati",
                "linkp": "a",
                "live": false,
                "name": "ddbharati",
                "tok": "widevine",
                "tokj": "hello",
                "trigger": false,
                "z": false,
                "zee": true
            },
            {
                "age": "Mozilla/5.0 (Windows NT 6.1; Win64; x64) AppleWebKit/537.36 (KHTML, like Gecko) Chrome/62.0.3202.94 Safari/537.36",
                "cardl": 300,
                "cardw": 350,
                "category": 8,
                "channel_id": 111,
                "drm": false,
                "hd": false,
                "icon": "https://logoeps.com/wp-content/uploads/2013/06/zee-tv-vector-logo.png",
                "imgh": 250,
                "imgw": 192,
                "isHD": true,
                "language": 6,
                "lic": false,
                "link": "ddbihar",
                "linkp": "a",
                "live": false,
                "name": "ddbihar",
                "tok": "widevine",
                "tokj": "hello",
                "trigger": false,
                "z": false,
                "zee": true
            },
            {
                "age": "Mozilla/5.0 (Windows NT 6.1; Win64; x64) AppleWebKit/537.36 (KHTML, like Gecko) Chrome/62.0.3202.94 Safari/537.36",
                "cardl": 300,
                "cardw": 350,
                "category": 8,
                "channel_id": 111,
                "drm": false,
                "hd": false,
                "icon": "https://logoeps.com/wp-content/uploads/2013/06/zee-tv-vector-logo.png",
                "imgh": 250,
                "imgw": 192,
                "isHD": true,
                "language": 6,
                "lic": false,
                "link": "ddgirnar",
                "linkp": "a",
                "live": false,
                "name": "ddgirnar",
                "tok": "widevine",
                "tokj": "hello",
                "trigger": false,
                "z": false,
                "zee": true
            },
            {
                "age": "Mozilla/5.0 (Windows NT 6.1; Win64; x64) AppleWebKit/537.36 (KHTML, like Gecko) Chrome/62.0.3202.94 Safari/537.36",
                "cardl": 300,
                "cardw": 350,
                "category": 8,
                "channel_id": 111,
                "drm": false,
                "hd": false,
                "icon": "https://logoeps.com/wp-content/uploads/2013/06/zee-tv-vector-logo.png",
                "imgh": 250,
                "imgw": 192,
                "isHD": true,
                "language": 6,
                "lic": false,
                "link": "ddindia",
                "linkp": "a",
                "live": false,
                "name": "ddindia",
                "tok": "widevine",
                "tokj": "hello",
                "trigger": false,
                "z": false,
                "zee": true
            },
            {
                "age": "Mozilla/5.0 (Windows NT 6.1; Win64; x64) AppleWebKit/537.36 (KHTML, like Gecko) Chrome/62.0.3202.94 Safari/537.36",
                "cardl": 300,
                "cardw": 350,
                "category": 8,
                "channel_id": 111,
                "drm": false,
                "hd": false,
                "icon": "https://logoeps.com/wp-content/uploads/2013/06/zee-tv-vector-logo.png",
                "imgh": 250,
                "imgw": 192,
                "isHD": true,
                "language": 6,
                "lic": false,
                "link": "ddkisan",
                "linkp": "a",
                "live": false,
                "name": "ddkisan",
                "tok": "widevine",
                "tokj": "hello",
                "trigger": false,
                "z": false,
                "zee": true
            },
            {
                "age": "Mozilla/5.0 (Windows NT 6.1; Win64; x64) AppleWebKit/537.36 (KHTML, like Gecko) Chrome/62.0.3202.94 Safari/537.36",
                "cardl": 300,
                "cardw": 350,
                "category": 8,
                "channel_id": 111,
                "drm": false,
                "hd": false,
                "icon": "https://logoeps.com/wp-content/uploads/2013/06/zee-tv-vector-logo.png",
                "imgh": 250,
                "imgw": 192,
                "isHD": true,
                "language": 6,
                "lic": false,
                "link": "ddmadhyapr",
                "linkp": "a",
                "live": false,
                "name": "ddmadhyapr",
                "tok": "widevine",
                "tokj": "hello",
                "trigger": false,
                "z": false,
                "zee": true
            },
            {
                "age": "Mozilla/5.0 (Windows NT 6.1; Win64; x64) AppleWebKit/537.36 (KHTML, like Gecko) Chrome/62.0.3202.94 Safari/537.36",
                "cardl": 300,
                "cardw": 350,
                "category": 8,
                "channel_id": 111,
                "drm": false,
                "hd": false,
                "icon": "https://logoeps.com/wp-content/uploads/2013/06/zee-tv-vector-logo.png",
                "imgh": 250,
                "imgw": 192,
                "isHD": true,
                "language": 6,
                "lic": false,
                "link": "ddmalayalam",
                "linkp": "a",
                "live": false,
                "name": "ddmalayalam",
                "tok": "widevine",
                "tokj": "hello",
                "trigger": false,
                "z": false,
                "zee": true
            },
            {
                "age": "Mozilla/5.0 (Windows NT 6.1; Win64; x64) AppleWebKit/537.36 (KHTML, like Gecko) Chrome/62.0.3202.94 Safari/537.36",
                "cardl": 300,
                "cardw": 350,
                "category": 8,
                "channel_id": 111,
                "drm": false,
                "hd": false,
                "icon": "https://logoeps.com/wp-content/uploads/2013/06/zee-tv-vector-logo.png",
                "imgh": 250,
                "imgw": 192,
                "isHD": true,
                "language": 6,
                "lic": false,
                "link": "ddnews",
                "linkp": "a",
                "live": false,
                "name": "ddnews",
                "tok": "widevine",
                "tokj": "hello",
                "trigger": false,
                "z": false,
                "zee": true
            },
            {
                "age": "Mozilla/5.0 (Windows NT 6.1; Win64; x64) AppleWebKit/537.36 (KHTML, like Gecko) Chrome/62.0.3202.94 Safari/537.36",
                "cardl": 300,
                "cardw": 350,
                "category": 8,
                "channel_id": 111,
                "drm": false,
                "hd": false,
                "icon": "https://logoeps.com/wp-content/uploads/2013/06/zee-tv-vector-logo.png",
                "imgh": 250,
                "imgw": 192,
                "isHD": true,
                "language": 6,
                "lic": false,
                "link": "ddodia",
                "linkp": "a",
                "live": false,
                "name": "ddodia",
                "tok": "widevine",
                "tokj": "hello",
                "trigger": false,
                "z": false,
                "zee": true
            },
            {
                "age": "Mozilla/5.0 (Windows NT 6.1; Win64; x64) AppleWebKit/537.36 (KHTML, like Gecko) Chrome/62.0.3202.94 Safari/537.36",
                "cardl": 300,
                "cardw": 350,
                "category": 8,
                "channel_id": 111,
                "drm": false,
                "hd": false,
                "icon": "https://logoeps.com/wp-content/uploads/2013/06/zee-tv-vector-logo.png",
                "imgh": 250,
                "imgw": 192,
                "isHD": true,
                "language": 6,
                "lic": false,
                "link": "ddpodhigai",
                "linkp": "a",
                "live": false,
                "name": "ddpodhigai",
                "tok": "widevine",
                "tokj": "hello",
                "trigger": false,
                "z": false,
                "zee": true
            },
            {
                "age": "Mozilla/5.0 (Windows NT 6.1; Win64; x64) AppleWebKit/537.36 (KHTML, like Gecko) Chrome/62.0.3202.94 Safari/537.36",
                "cardl": 300,
                "cardw": 350,
                "category": 8,
                "channel_id": 111,
                "drm": false,
                "hd": false,
                "icon": "https://logoeps.com/wp-content/uploads/2013/06/zee-tv-vector-logo.png",
                "imgh": 250,
                "imgw": 192,
                "isHD": true,
                "language": 6,
                "lic": false,
                "link": "ddrajasthan",
                "linkp": "a",
                "live": false,
                "name": "ddrajasthan",
                "tok": "widevine",
                "tokj": "hello",
                "trigger": false,
                "z": false,
                "zee": true
            },
            {
                "age": "Mozilla/5.0 (Windows NT 6.1; Win64; x64) AppleWebKit/537.36 (KHTML, like Gecko) Chrome/62.0.3202.94 Safari/537.36",
                "cardl": 300,
                "cardw": 350,
                "category": 8,
                "channel_id": 111,
                "drm": false,
                "hd": false,
                "icon": "https://logoeps.com/wp-content/uploads/2013/06/zee-tv-vector-logo.png",
                "imgh": 250,
                "imgw": 192,
                "isHD": true,
                "language": 6,
                "lic": false,
                "link": "ddsahyadri",
                "linkp": "a",
                "live": false,
                "name": "ddsahyadri",
                "tok": "widevine",
                "tokj": "hello",
                "trigger": false,
                "z": false,
                "zee": true
            },
            {
                "age": "Mozilla/5.0 (Windows NT 6.1; Win64; x64) AppleWebKit/537.36 (KHTML, like Gecko) Chrome/62.0.3202.94 Safari/537.36",
                "cardl": 300,
                "cardw": 350,
                "category": 8,
                "channel_id": 111,
                "drm": false,
                "hd": false,
                "icon": "https://logoeps.com/wp-content/uploads/2013/06/zee-tv-vector-logo.png",
                "imgh": 250,
                "imgw": 192,
                "isHD": true,
                "language": 6,
                "lic": false,
                "link": "ddurdu",
                "linkp": "a",
                "live": false,
                "name": "ddurdu",
                "tok": "widevine",
                "tokj": "hello",
                "trigger": false,
                "z": false,
                "zee": true
            },
            {
                "age": "Mozilla/5.0 (Windows NT 6.1; Win64; x64) AppleWebKit/537.36 (KHTML, like Gecko) Chrome/62.0.3202.94 Safari/537.36",
                "cardl": 300,
                "cardw": 350,
                "category": 8,
                "channel_id": 111,
                "drm": false,
                "hd": false,
                "icon": "https://logoeps.com/wp-content/uploads/2013/06/zee-tv-vector-logo.png",
                "imgh": 250,
                "imgw": 192,
                "isHD": true,
                "language": 6,
                "lic": false,
                "link": "dduttarprad",
                "linkp": "a",
                "live": false,
                "name": "dduttarprad",
                "tok": "widevine",
                "tokj": "hello",
                "trigger": false,
                "z": false,
                "zee": true
            },
            {
                "age": "Mozilla/5.0 (Windows NT 6.1; Win64; x64) AppleWebKit/537.36 (KHTML, like Gecko) Chrome/62.0.3202.94 Safari/537.36",
                "cardl": 300,
                "cardw": 350,
                "category": 8,
                "channel_id": 111,
                "drm": false,
                "hd": false,
                "icon": "https://logoeps.com/wp-content/uploads/2013/06/zee-tv-vector-logo.png",
                "imgh": 250,
                "imgw": 192,
                "isHD": true,
                "language": 6,
                "lic": false,
                "link": "ddyadagiri",
                "linkp": "a",
                "live": false,
                "name": "ddyadagiri",
                "tok": "widevine",
                "tokj": "hello",
                "trigger": false,
                "z": false,
                "zee": true
            },
            {
                "age": "Mozilla/5.0 (Windows NT 6.1; Win64; x64) AppleWebKit/537.36 (KHTML, like Gecko) Chrome/62.0.3202.94 Safari/537.36",
                "cardl": 300,
                "cardw": 350,
                "category": 8,
                "channel_id": 111,
                "drm": false,
                "hd": false,
                "icon": "https://logoeps.com/wp-content/uploads/2013/06/zee-tv-vector-logo.png",
                "imgh": 250,
                "imgw": 192,
                "isHD": true,
                "language": 6,
                "lic": false,
                "link": "ddpunjabi",
                "linkp": "a",
                "live": false,
                "name": "ddpunjabi",
                "tok": "widevine",
                "tokj": "hello",
                "trigger": false,
                "z": false,
                "zee": true
            }
        ],
        "title": "Welcome to array 2"
    }
]